id,name,address,lon,lat,capacity,event_type,code,note,to_output
KovZpZA6k7IA,Amalie Arena,401 Channelside Dr,-82.451772,27.942743,999,N/A,N/A,N/A,1
KovZpZAFnl1A,Raymond James Stadium,4201 North Dale Mabry Highway,-82.505367,27.977781,999,N/A,N/A,N/A,1
KovZpZAEkAvA,USF Sun Dome,4202 East Fowler Ave,-82.4154987,28.0587114,999,N/A,N/A,N/A,1
KovZpapdwe,The Ritz Ybor,1503 E 7th Ave,-82.442705,27.959926,999,N/A,N/A,N/A,1
KovZpZAEkA7A,MIDFLORIDA Credit Union Amphitheatre at the FL State Fairgrounds,4802 US Highway 301 North,-82.36465,27.993555,999,N/A,N/A,N/A,1
KovZpa4R1e,USF Theatre 1,4202 East Fowler Avenue,-82.4154987,28.0587114,999,N/A,N/A,N/A,1
KovZpZAFAnJA,George Steinbrenner Field,3802 Dr Martin Luther King Jr Blvd,-82.507423,27.98008,999,N/A,N/A,N/A,1
KovZpa4Rwe,USF Concert Hall,4202 E. Fowler Avenue,-82.41299495,28.05460475,999,N/A,N/A,N/A,1
KovZpZAaaJ6A,Hard Rock Cafe Tampa at Seminole Hard Rock Hotel & Casino Tampa,5223 N Orient Road,-82.3730061,27.9915755,999,N/A,N/A,N/A,1
KovZpa3QGe,Crowbar,1812 North 17th Street,-82.44064331,27.960783,999,N/A,N/A,N/A,1
KovZpZA1v7EA,USF Theatre 2,4202 East Fowler Avenue,-82.4154987,28.0587114,999,N/A,N/A,N/A,1
KovZpa4Rre,A LA Carte Pavilion,4050 Dana Shores Drive,-82.5598119,27.976531,999,N/A,N/A,N/A,1
KovZpZAEeaaA,Brass Mug,1450 Skipper Rd.,-82.443577,28.080937,999,N/A,N/A,N/A,1
KovZpZAt6eAA,District 3,802 E Whiting Street,-82.452411,27.947287,999,N/A,N/A,N/A,1
KovZpZA1vJ6A,Orpheum,1915 E 7th Ave.,-82.4442223,27.9668313,999,N/A,N/A,N/A,1
ZFr9jZ6ve6,Radisson Bay Harbor - Tampa,7700 W Courtney Campbell Cswy,-82.5019,27.962999,999,N/A,N/A,N/A,1
ZFr9jZFaFA,Bayanihan Arts and Event Center,14301 Nine Eagles Drive,-82.610603,28.0595,999,N/A,N/A,N/A,1
ZFr9jZ66k6,Empire Nightclub - Tampa,1902 East 7th Avenue,-82.429497,27.9538,999,N/A,N/A,N/A,1
ZFr9jZ66dv,Pepin Hospitality Centre,4121 N. 50th Street,-82.400101,27.9974,999,N/A,N/A,N/A,1
ZFr9jZ666d,Level III Nightclub - FL,1611 7th Avenue,-82.373596,27.9256,999,N/A,N/A,N/A,1
ZFr9jZe6eA,State Fairgrounds,4800 N US Highway 301,-82.373596,27.9256,999,N/A,N/A,N/A,1
ZFr9jZ16A7,Whiskey Joe's Bar & Grill,7720 W Courtney Campbell Causeway,-82.5019,27.962999,999,N/A,N/A,N/A,1
ZFr9jZ1avF,Amphitheatre Event Facility,1609 E. 7th Ave.,-82.429497,27.9538,999,N/A,N/A,N/A,1
ZFr9jZdFaa,Tampa Theater,711 N Franklin St,-82.457603,27.9575,999,N/A,N/A,N/A,1
Z6r9jZkFae,Florida State Fairgrounds Hall,4800 N US Highway 301,-82.400101,27.9974,999,N/A,N/A,N/A,1
Z7r9jZaerQ,Hilton Tampa Downtown,211 N. Tampa St,-82.457603,27.9575,999,N/A,N/A,N/A,1
ZFr9jZ66kF,Tampa's Lowry Park Zoo,1101 W Sligh Ave,-82.457298,28.0168,999,N/A,N/A,N/A,1
Z7r9jZaeMQ,University Area CDC Gymnasium,14013 N 22nd St,-82.445198,28.0805,999,N/A,N/A,N/A,1
Z7r9jZadei,Curtis Hixton Waterfront Park,600 N Ashley Dr,-82.457603,27.9575,999,N/A,N/A,N/A,1
ZFr9jZ66ek,Jackson's Bistro,601 South Harbo Island Blvd,-82.457603,27.9575,999,N/A,N/A,N/A,1
ZFr9jZ7d1e,Masquerade-FL,1503 E 7th Ave,-82.429497,27.9538,999,N/A,N/A,N/A,1
Z7r9jZaei2,Club Skye,1509 E. 8th Avenue,-82.429497,27.9538,999,N/A,N/A,N/A,1
ZFr9jZe7d7,Performing Arts-Playhouse,1010 N. W.C. MacInnes Place,-82.340103,27.982599,999,N/A,N/A,N/A,1
ZFr9jZadeA,USF Soccer Stadium,4202 East Fowler Ave,-82.409302,28.0632,999,N/A,N/A,N/A,1
ZFr9jZ77AF,Seminole Hard Rock Hotel & Casino- Tampa,5223 Orient Road,-82.400101,27.9974,999,N/A,N/A,N/A,1
ZFr9jZ66kk,202 South Morgan Street,202 South Morgan Street,-82.457603,27.9575,999,N/A,N/A,N/A,1
Z6r9jZk16e,Frankies Patio,1920 E. 7th Ave.,-82.429497,27.9538,999,N/A,N/A,N/A,1
ZFr9jZaFad,The Hawaiian Village,2520 N. Dale Marby,-82.5019,27.962999,999,N/A,N/A,N/A,1
ZFr9jZFvee,Marriott Tampa Airport,Tampa International Airport,-82.5019,27.962999,999,N/A,N/A,N/A,1
Z7r9jZaenU,Curtis Hixon & Kiley Gardens,600 N Ashley Drive,-82.457603,27.9575,999,N/A,N/A,N/A,1
ZFr9jZ6d7d,Stumps Supper Club,615 Channelside Dr.,-82.457603,27.9575,999,N/A,N/A,N/A,1
Z7r9jZadZj,Beach Bar and Restaurant,7700 W Courtney Campbell Causeway,-82.5019,27.962999,999,N/A,N/A,N/A,1
Z6r9jZ1eve,George M. Steinbrenner Field,3802 Dr. M. Luther King Blvd.,-82.5019,27.962999,999,N/A,N/A,N/A,1
ZFr9jZdk6v,David A. Straz Center - Ferguson Hall,1010 North W.C. MacInnes Place,-82.457603,27.9575,999,N/A,N/A,N/A,1
Z7r9jZaelj,Haven - Tampa,2208 West Morrison Ave,-82.473999,27.940701,999,N/A,N/A,N/A,1
Z7r9jZada2,Epicurean Theatre,|1207 South Howard Avenue,-82.473999,27.940701,999,N/A,N/A,N/A,1
ZFr9jZa1vA,Silver Bullet Events,3314 Henderson Blvd,-82.511299,27.9431,999,N/A,N/A,N/A,1
ZFr9jZ66eF,Boizao Brazilian Steakhouse,4606 W Boy Scout Blvd,-82.5019,27.962999,999,N/A,N/A,N/A,1
Z6r9jZkFFe,Under the White Big Top - Tampa,,-82.400101,27.9974,999,N/A,N/A,N/A,1
Z6r9jZFAFe,Houlihans Stadium,4201 N. Dale Mabry Hwy.,-82.5019,27.962999,999,N/A,N/A,N/A,1
ZFr9jZe7ea,David A. Straz Center - Jaeb Theatre,1010 N. W.C. MacInnes Place,-82.340103,27.982599,999,N/A,N/A,N/A,1
Z7r9jZadp_,USF Oval Theater,4202 E. Fowler Avenue,-82.449997,28.0508,999,N/A,N/A,N/A,1
ZFr9jZFFA7,Crowbar - Tampa,1812 17th Street North,-82.429497,27.9538,999,N/A,N/A,N/A,1
ZFr9jZdvka,David A. Straz Center - Carol Morsani Hall,1010 N W C Macinnes Pl,-82.457603,27.9575,999,N/A,N/A,N/A,1
ZFr9jZAAAe,Orpheum Theatre - Tampa,1902 & 14th Street,-82.429497,27.9538,999,N/A,N/A,N/A,1
Z7r9jZadpY,Transitions Art Gallery,4215 E. Columbus Dr.,-82.429497,27.9538,999,N/A,N/A,N/A,1
KovZpa9kpe,Busch Gardens,3000 E Busch Blvd,-82.422194,28.036259,999,N/A,N/A,N/A,1
KovZpa6_Ge,Tampa Bay Perf Arts Ctr Ferguson Hall,1010 North W.C. MacInnes Place,-82.463882,27.951644,999,N/A,N/A,N/A,1
KovZpZAaElJA,Doubletree Hotel Tampa,4500 West Cypress Street,-82.520625,27.951596,999,N/A,N/A,N/A,1
KovZpa3_me,Tampa Bay Perf Arts Ctr Morsani Hall,1010 North W.C. MacInnes Place,-82.463882,27.951644,999,N/A,N/A,N/A,1
KovZpZAaE1EA,Florida State Fairgrounds Entertainment Hall,4800 US Highway 301 North,-82.371035,27.989543,999,N/A,N/A,N/A,1
Z7r9jZadpY,Transitions Art Gallery,4215 E. Columbus Dr.,-82.429497,27.9538,999,N/A,N/A,N/A,1
ZFr9jZAAAe,Orpheum Theatre - Tampa,1902 & 14th Street,-82.429497,27.9538,999,N/A,N/A,N/A,1
KovZpZA1IleA,The Embassy Suites DownTown Tampa,513 South Florida Ave,-82.455063,27.942247,999,N/A,N/A,N/A,1
KovZpZA1tkvA,The Garage,802 E Whiting Street,-82.4523431,27.9471693,999,N/A,N/A,N/A,1
KovZpZA1t7JA,Tampa Bay Perf Arts Rehearsal Hall,1010 North W.C. MacInnes Place,-82.463882,27.951644,999,N/A,N/A,N/A,1
KovZpZA1AtaA,Banana Joes Margarita Mamas,618 Channelside Dr.,-82.4460056,27.9442821,999,N/A,N/A,N/A,1
KovZpZAJa7nA,Skatepark Of Tampa,4215 East Columbus Drive,-82.41044475,27.9660889,999,N/A,N/A,N/A,1
KovZpZA1vEtA,The Honeypot,1507 E. 7th Ave.,-82.442532,27.960073,999,N/A,N/A,N/A,1
KovZ917A2GV,Aja Channelside,290 S Meridian Ave,-82.448601,27.944321,999,N/A,N/A,N/A,1
KovZpZAFAleA,New World Brewery,1313 E. 8th Ave,-82.44484711,27.96076202,999,N/A,N/A,N/A,1
KovZpZAEkevA,USF Sun Dome North Lot,4202 East Fowler Avenue,-82.4154987,28.0587114,999,N/A,N/A,N/A,1
KovZpaKv8e,USF Special Events Center,4202 East Fowler Avenue,-82.4154987,28.0587114,999,N/A,N/A,N/A,1
KovZpZAJAlEA,TPepin Hospitality Centre,4121 N. 50th Street,-82.398435,27.98294,999,N/A,N/A,N/A,1
KovZpZA1II1A,Solarium,1503 E 7th Ave,-82.442705,27.959926,999,N/A,N/A,N/A,1
KovZpaKeGe,Mosi Tampa Museum of Science and Industry,4801 E Fowler Ave,-82.404529,28.053545,999,N/A,N/A,N/A,1
KovZpZA1II6A,Tampa Bay Perf Arts Ctr Jaeb Theatre,1010 North W.C. MacInnes Place,-82.463882,27.951644,999,N/A,N/A,N/A,1
KovZpZAaaJeA,Florida State Fairgrounds Expo Hall,4800 US Highway 301 North,-82.371035,27.989543,999,N/A,N/A,N/A,1
KovZpZA1AEtA,Adventure Island,10001 N McKinley Dr,-82.4129534,28.0413229,999,N/A,N/A,N/A,0
KovZpZAJdt7A,Raymond James Stadium Parking Lot – Universoul,4201 N Dale Mabry Highway,-82.5029602,27.9787178,999,N/A,N/A,N/A,0
KovZpZAJdt6A,Poolside at Seminole Hard Rock Hotel & Casino Tampa,5223 North Orient Road,-82.37185764,27.9935634,999,N/A,N/A,N/A,0
KovZpZA1tAIA,Tampa Marriot Waterside,700 South Florida Avenue,-82.453863,27.940866,999,N/A,N/A,N/A,0
KovZpZA1AIAA,Empire Club,1902 E 7th Avenue,-82.437803,27.960466,999,N/A,N/A,N/A,0
KovZpZAFAntA,USF Baseball and Softball Complex,11899 Bull Run Drive,-82.4050888,28.0599753,999,N/A,N/A,N/A,0
KovZpZAdlknA,The Amphitheatre Entertainment Complex At YBOR,1609 East 7th Avenue,-82.441301,27.960064,999,N/A,N/A,N/A,0
KovZpZA1lkdA,West Tampa Convention Center,3005 West Columbus Drive,-82.49178,27.967116,999,N/A,N/A,N/A,0
KovZpZA1aIlA,Florida State Fairgrounds Lykes Arena,4800 US Highway 301 North,-82.371035,27.989543,999,N/A,N/A,N/A,0
KovZpZA1atnA,Florida Aquarium,701 Channelside Dr,-82.444147,27.94546,999,N/A,N/A,N/A,0
KovZpZA1l1IA,Without Walls International Church,2511 North Grady Avenue,-82.5098071,27.9642211,999,N/A,N/A,N/A,0
KovZpZA1k7IA,Embassy Suites USF,3705 Spectrum Blvd,-82.41673,28.055924,999,N/A,N/A,N/A,0
KovZpZAFAlvA,Curtis Hixon Waterfront Park,600 N. Ashley Drive,-82.4605418,27.94867292,999,N/A,N/A,N/A,0
KovZpaKeee,The Infinity Room At the Masquerade Tampa,1503 E. 7th Ave.,-82.442705,27.959926,999,N/A,N/A,N/A,0
KovZpZA77l6A,The Social Ybor,1909 15th St.,-82.442698,27.961413,999,N/A,N/A,N/A,0
KovZpa9kpe,Busch Gardens,3000 E Busch Blvd,-82.422194,28.036259,999,N/A,N/A,N/A,0
KovZpZAaElJA,Doubletree Hotel Tampa,4500 West Cypress Street,-82.520625,27.951596,999,N/A,N/A,N/A,0
KovZpa6_Ge,Tampa Bay Perf Arts Ctr Ferguson Hall,1010 North W.C. MacInnes Place,-82.463882,27.951644,999,N/A,N/A,N/A,0
KovZpZAFAntA,USF Baseball and Softball Complex,11899 Bull Run Drive,-82.4050888,28.0599753,999,N/A,N/A,N/A,0
KovZpZAdlknA,The Amphitheatre Entertainment Complex At YBOR,1609 East 7th Avenue,-82.441301,27.960064,999,N/A,N/A,N/A,0
KovZpZA1lkdA,West Tampa Convention Center,3005 West Columbus Drive,-82.49178,27.967116,999,N/A,N/A,N/A,0
KovZpa3_me,Tampa Bay Perf Arts Ctr Morsani Hall,1010 North W.C. MacInnes Place,-82.463882,27.951644,999,N/A,N/A,N/A,0
KovZpZAaE1EA,Florida State Fairgrounds Entertainment Hall,4800 US Highway 301 North,-82.371035,27.989543,999,N/A,N/A,N/A,0
KovZpZA1II6A,Tampa Bay Perf Arts Ctr Jaeb Theatre,1010 North W.C. MacInnes Place,-82.463882,27.951644,999,N/A,N/A,N/A,0
KovZpZAaaJeA,Florida State Fairgrounds Expo Hall,4800 US Highway 301 North,-82.371035,27.989543,999,N/A,N/A,N/A,0
KovZpZAJdt6A,Poolside at Seminole Hard Rock Hotel & Casino Tampa,5223 North Orient Road,-82.37185764,27.9935634,999,N/A,N/A,N/A,0
KovZpaKeGe,Mosi Tampa Museum of Science and Industry,4801 E Fowler Ave,-82.404529,28.053545,999,N/A,N/A,N/A,0
KovZpZA1aIlA,Florida State Fairgrounds Lykes Arena,4800 US Highway 301 North,-82.371035,27.989543,999,N/A,N/A,N/A,0
KovZpZA1atnA,Florida Aquarium,701 Channelside Dr,-82.444147,27.94546,999,N/A,N/A,N/A,0
KovZpZAJdt7A,Raymond James Stadium Parking Lot – Universoul,4201 N Dale Mabry Highway,-82.5029602,27.9787178,999,N/A,N/A,N/A,0
