I15N:
total_number_of_accidents_predicted_correctly_I15N: 95
total_accidents_slots_predicted_I15N: 101
total_crashes_in_slots_I15N: 121
accident hit rate I15N (accidents predicted correctly/total accidents)(%): 78.51239669421489
accident slot hit rate I15N (accident slots predicted correctly/total accident slots)(%): 78.87323943661971
Total accident slots predicted correctly I15N: 56
Total accident slots I15N: 71
Total accidents I15N: 146
Total slots I15N: 439
Non-Accident hit-rate (predicted correct noncrash slots/total noncrash slots) I15N: 81.70731707317073
Average slots hit rate I15N: 80.29027825489521
accident miss rate I15N (accidents predicted correctly/total accidents)(%): 21.487603305785118
accident slot miss rate I15N (accident slots predicted correctly/total accident slots)(%): 21.126760563380287




I15S:
total_number_of_accidents_predicted_correctly_I15S: 25
total_accidents_slots_predicted_I15S: 77
total_crashes_in_slots_I15S: 42
accident hit rate I15S (accidents predicted correctly/total accidents)(%): 59.523809523809526
accident slot hit rate I15S (accident slots predicted correctly/total accident slots)(%): 54.054054054054056
Total accident slots predicted correctly I15S: 20
Total accident slots I15S: 37
Total accidents I15S: 49
Total slots I15S: 439
Non-Accident hit-rate (predicted correct noncrash slots/total noncrash slots) I15S: 83.9622641509434
Average slots hit rate I15S: 69.00815910249872
accident miss rate I15S (1-accidents predicted correctly/total accidents)(%): 40.476190476190474
accident slot miss rate I15S (1-accident slots predicted correctly/total accident slots)(%): 45.945945945945944




US95N:
total_number_of_accidents_predicted_correctly_US95N: 6
total_accidents_slots_predicted_US95N: 42
total_crashes_in_slots_US95N: 20
accident hit rate US95N (accidents predicted correctly/total accidents)(%): 30.0
accident slot hit rate US95N (accident slots predicted correctly/total accident slots)(%): 33.33333333333333
Total accident slots predicted correctly US95N: 6
Total accident slots US95N: 18
Total slots US95N: 27
Total accidents US95N: 27
Total slots US95N: 439
Non-Accident hit-rate (predicted correct noncrash slots/total noncrash slots) US95N: 91.48936170212765
Average slots hit rate US95N: 62.41134751773049
accident miss rate US95N (1-accidents predicted correctly/total accidents)(%): 70.0
accident slot miss rate US95N (1-accident slots predicted correctly/total accident slots)(%): 66.66666666666667




US95S:
total_number_of_accidents_predicted_correctly_US95S: 8
total_accidents_slots_predicted_US95S: 51
total_crashes_in_slots_US95S: 30
accident hit rate US95S (accidents predicted correctly/total accidents)(%): 26.666666666666668
accident slot hit rate US95S (accident slots predicted correctly/total accident slots)(%): 30.76923076923077
Total accident slots predicted correctly US95S: 8
Total accident slots US95S: 26
Total accidents US95S: 34
Total slots US95S: 439
Non-Accident hit-rate (predicted correct noncrash slots/total noncrash slots) US95S: 86.36363636363636
Average slots hit rate US95S: 58.56643356643357
accident miss rate US95S (1-accidents predicted correctly/total accidents)(%): 73.33333333333334
accident slot miss rate US95S (1-accident slots predicted correctly/total accident slots)(%): 69.23076923076923
spillman US95N predictions:
Hr>| 6   | 8   |10   |12   |14   |16   |18   |20   |
Day|
0  |     |     |     |     |     |     |     |     |
1  |     |     |     |     |     |     |     |     |
2  |     |     |     |     |     |     |     |     |
3  |     |     |     |     |     |     |     |     |
4  |     |     |     |     |     |     |     |     |
5  |     |     |     |     |     |     |     |     |
6  |     |     |     |     |     |     |     |     |
7  |     |     |     |     |     |     |     |     |
8  |     |     |     |     |     |     |     |     |
9  |     |0.0  |0.0  |0.0  |0.0  |2.0  |2.0  |0.0  |
10 |0.0  |2.0  |0.0  |0.0  |0.0  |2.0  |0.0  |0.0  |
11 |0.0  |2.0  |0.0  |0.0  |0.0  |2.0  |2.0  |0.0  |
12 |0.0  |2.0  |0.0  |2.0  |0.0  |2.0  |0.0  |0.0  |
13 |2.0  |0.0  |0.0  |0.0  |0.0  |0.0  |0.0  |0.0  |
14 |0.0  |2.0  |2.0  |0.0  |0.0  |0.0  |0.0  |0.0  |
15 |0.0  |0.0  |0.0  |0.0  |0.0  |0.0  |0.0  |0.0  |
16 |0.0  |0.0  |0.0  |0.0  |0.0  |2.0  |2.0  |0.0  |
17 |0.0  |2.0  |0.0  |0.0  |0.0  |2.0  |0.0  |0.0  |
18 |0.0  |2.0  |0.0  |0.0  |0.0  |2.0  |0.0  |0.0  |
19 |0.0  |2.0  |0.0  |2.0  |0.0  |2.0  |0.0  |0.0  |
20 |2.0  |0.0  |0.0  |0.0  |0.0  |0.0  |0.0  |0.0  |
21 |0.0  |2.0  |2.0  |0.0  |0.0  |0.0  |0.0  |0.0  |
22 |0.0  |0.0  |0.0  |0.0  |0.0  |0.0  |0.0  |0.0  |
23 |0.0  |0.0  |0.0  |0.0  |0.0  |2.0  |2.0  |0.0  |
24 |0.0  |2.0  |0.0  |0.0  |0.0  |2.0  |0.0  |0.0  |
25 |0.0  |2.0  |0.0  |0.0  |0.0  |2.0  |2.0  |0.0  |
26 |0.0  |2.0  |0.0  |2.0  |0.0  |2.0  |0.0  |0.0  |
27 |2.0  |0.0  |0.0  |0.0  |0.0  |0.0  |0.0  |0.0  |
28 |0.0  |2.0  |2.0  |0.0  |0.0  |0.0  |0.0  |0.0  |
29 |0.0  |0.0  |0.0  |0.0  |0.0  |0.0  |0.0  |0.0  |
30 |0.0  |0.0  |0.0  |0.0  |0.0  |2.0  |2.0  |0.0  |
31 |0.0  |2.0  |0.0  |0.0  |0.0  |2.0  |0.0  |0.0  |
spillman US95N crashes:
Hr>|0  |2  |4  |6  |8  |10 |12 |14 |16 |18 |20 |22 |
Day|
0  |   |   |   |   |   |   |   |   |   |   |   |   |
1  |   |   |   |   |   |   |   |   |   |   |   |   |
2  |   |   |   |   |   |   |   |   |   |   |   |   |
3  |   |   |   |   |   |   |   |   |   |   |   |   |
4  |   |   |   |   |   |   |   |   |   |   |   |   |
5  |   |   |   |   |   |   |   |   |   |   |   |   |
6  |   |   |   |   |   |   |   |   |   |   |   |   |
7  |   |   |   |   |   |   |   |   |   |   |   |   |
8  |   |   |   |   |   |   |   |   |   |   |   |   |
9  |   |   |   |   |   |   |   |   |   |   |   |   |
10 |   |   |   |   |   |   |   |   |1 |   |   |   |
11 |   |   |   |1 |   |   |   |   |1 |   |   |   |
12 |   |   |   |   |   |   |   |   |   |   |   |   |
13 |   |   |   |   |   |   |   |   |   |1 |   |   |
14 |   |   |   |   |   |   |   |   |   |   |   |   |
15 |2  |   |   |   |   |   |   |   |   |   |   |   |
16 |   |   |   |   |   |1 |1 |   |   |   |   |   |
17 |   |   |   |   |   |   |   |2  |1 |   |   |   |
18 |   |   |   |   |   |2  |   |   |1 |1 |   |   |
19 |   |   |   |   |   |   |   |   |1 |1 |   |   |
20 |   |   |1 |   |   |   |   |   |   |   |   |   |
21 |   |   |   |   |   |   |   |   |   |   |   |   |
22 |   |   |   |   |   |   |   |   |   |   |   |1 |
23 |   |   |   |   |1 |   |   |   |   |   |   |   |
24 |   |   |   |   |   |   |   |   |   |   |   |   |
25 |   |1 |   |   |   |   |   |1 |   |   |   |   |
26 |   |   |   |   |   |   |   |   |   |   |1 |   |
27 |   |   |   |   |   |   |   |   |   |1 |   |   |
28 |   |   |1 |   |   |   |   |   |   |   |   |   |
29 |   |   |   |   |   |   |   |   |   |   |   |   |
30 |   |   |   |   |   |   |   |   |   |1 |   |1 |
31 |   |   |   |   |   |   |   |   |   |   |   |   |
spillman US95S predictions:
Hr>| 6   | 8   |10   |12   |14   |16   |18   |20   |
Day|
0  |     |     |     |     |     |     |     |     |
1  |     |     |     |     |     |     |     |     |
2  |     |     |     |     |     |     |     |     |
3  |     |     |     |     |     |     |     |     |
4  |     |     |     |     |     |     |     |     |
5  |     |     |     |     |     |     |     |     |
6  |     |     |     |     |     |     |     |     |
7  |     |     |     |     |     |     |     |     |
8  |     |     |     |     |     |     |     |     |
9  |     |2.0  |0.0  |0.0  |0.0  |0.0  |0.0  |0.0  |
10 |2.0  |2.0  |0.0  |0.0  |0.0  |0.0  |0.0  |0.0  |
11 |2.0  |2.0  |0.0  |0.0  |0.0  |0.0  |0.0  |0.0  |
12 |2.0  |2.0  |2.0  |0.0  |2.0  |0.0  |0.0  |0.0  |
13 |2.0  |2.0  |2.0  |0.0  |0.0  |2.0  |0.0  |0.0  |
14 |0.0  |0.0  |2.0  |0.0  |0.0  |0.0  |0.0  |0.0  |
15 |0.0  |0.0  |2.0  |0.0  |0.0  |0.0  |0.0  |0.0  |
16 |2.0  |2.0  |0.0  |0.0  |0.0  |0.0  |0.0  |0.0  |
17 |2.0  |2.0  |0.0  |0.0  |0.0  |0.0  |0.0  |0.0  |
18 |2.0  |2.0  |0.0  |0.0  |0.0  |0.0  |0.0  |0.0  |
19 |2.0  |2.0  |2.0  |0.0  |2.0  |0.0  |0.0  |0.0  |
20 |2.0  |2.0  |2.0  |0.0  |0.0  |2.0  |0.0  |0.0  |
21 |0.0  |0.0  |2.0  |0.0  |0.0  |0.0  |0.0  |0.0  |
22 |0.0  |0.0  |2.0  |0.0  |0.0  |0.0  |0.0  |0.0  |
23 |2.0  |2.0  |0.0  |0.0  |0.0  |0.0  |0.0  |0.0  |
24 |2.0  |2.0  |0.0  |0.0  |0.0  |0.0  |0.0  |0.0  |
25 |2.0  |2.0  |0.0  |0.0  |0.0  |0.0  |0.0  |0.0  |
26 |2.0  |2.0  |2.0  |0.0  |2.0  |0.0  |0.0  |0.0  |
27 |2.0  |2.0  |2.0  |0.0  |0.0  |2.0  |0.0  |0.0  |
28 |0.0  |0.0  |2.0  |0.0  |0.0  |0.0  |0.0  |0.0  |
29 |0.0  |0.0  |2.0  |0.0  |0.0  |0.0  |0.0  |0.0  |
30 |2.0  |2.0  |0.0  |0.0  |0.0  |0.0  |0.0  |0.0  |
31 |2.0  |2.0  |0.0  |0.0  |0.0  |0.0  |0.0  |0.0  |
spillman US95S crashes:
Hr>|0  |2  |4  |6  |8  |10 |12 |14 |16 |18 |20 |22 |
Day|
0  |   |   |   |   |   |   |   |   |   |   |   |   |
1  |   |   |   |   |   |   |   |   |   |   |   |   |
2  |   |   |   |   |   |   |   |   |   |   |   |   |
3  |   |   |   |   |   |   |   |   |   |   |   |   |
4  |   |   |   |   |   |   |   |   |   |   |   |   |
5  |   |   |   |   |   |   |   |   |   |   |   |   |
6  |   |   |   |   |   |   |   |   |   |   |   |   |
7  |   |   |   |   |   |   |   |   |   |   |   |   |
8  |   |   |   |   |   |   |   |   |   |   |   |   |
9  |   |   |   |   |   |1  |   |   |   |   |   |   |
10 |   |   |   |   |   |   |   |1  |   |   |   |   |
11 |   |   |   |   |1  |   |   |   |   |1  |   |   |
12 |   |   |   |1  |   |   |   |   |   |   |2 |   |
13 |   |   |   |   |   |   |   |   |1  |   |   |   |
14 |   |   |   |   |   |   |   |   |   |   |   |   |
15 |   |   |   |   |   |   |   |   |   |   |   |   |
16 |   |   |   |   |   |   |1  |   |   |   |   |   |
17 |   |   |   |   |   |   |   |1  |   |   |   |   |
18 |   |   |   |   |   |   |   |   |   |2 |   |   |
19 |   |   |   |   |   |   |   |1  |   |   |   |   |
20 |   |   |   |   |   |   |   |   |   |1  |2 |1  |
21 |   |   |   |   |   |   |   |2 |   |1  |   |   |
22 |   |   |   |   |   |   |   |   |   |   |   |   |
23 |   |   |   |   |   |   |   |   |1  |   |   |1  |
24 |   |   |   |   |   |   |   |   |   |   |   |   |
25 |   |   |   |1  |   |   |1  |1  |   |   |   |   |
26 |   |   |   |   |1  |   |   |1  |   |   |   |   |
27 |   |   |   |   |   |   |   |   |1  |   |   |   |
28 |   |   |1  |   |   |   |   |   |   |   |   |   |
29 |1  |   |   |   |   |   |   |   |   |1  |   |   |
30 |   |   |   |   |   |1  |   |1  |   |1  |   |   |
31 |   |   |   |   |   |   |   |   |   |   |   |   |
spillman I15N predictions:
Hr>| 6   | 8   |10   |12   |14   |16   |18   |20   |
Day|
0  |     |     |     |     |     |     |     |     |
1  |     |     |     |     |     |     |     |     |
2  |     |     |     |     |     |     |     |     |
3  |     |     |     |     |     |     |     |     |
4  |     |     |     |     |     |     |     |     |
5  |     |     |     |     |     |     |     |     |
6  |     |     |     |     |     |     |     |     |
7  |     |     |     |     |     |     |     |     |
8  |     |     |     |     |     |     |     |     |
9  |     |0.0  |0.0  |2.0  |2.0  |2.0  |2.0  |0.0  |
10 |0.0  |0.0  |0.0  |2.0  |2.0  |2.0  |2.0  |0.0  |
11 |0.0  |0.0  |0.0  |2.0  |2.0  |2.0  |2.0  |0.0  |
12 |0.0  |0.0  |0.0  |2.0  |2.0  |2.0  |2.0  |2.0  |
13 |0.0  |0.0  |2.0  |2.0  |2.0  |2.0  |2.0  |2.0  |
14 |0.0  |0.0  |0.0  |2.0  |2.0  |2.0  |2.0  |2.0  |
15 |0.0  |0.0  |0.0  |0.0  |2.0  |2.0  |2.0  |0.0  |
16 |0.0  |0.0  |0.0  |2.0  |2.0  |2.0  |2.0  |0.0  |
17 |0.0  |0.0  |0.0  |2.0  |2.0  |2.0  |2.0  |0.0  |
18 |0.0  |0.0  |0.0  |2.0  |2.0  |2.0  |2.0  |0.0  |
19 |0.0  |0.0  |0.0  |2.0  |2.0  |2.0  |2.0  |2.0  |
20 |0.0  |0.0  |2.0  |2.0  |2.0  |2.0  |2.0  |2.0  |
21 |0.0  |0.0  |0.0  |2.0  |2.0  |2.0  |2.0  |2.0  |
22 |0.0  |0.0  |0.0  |0.0  |2.0  |2.0  |2.0  |0.0  |
23 |0.0  |0.0  |0.0  |2.0  |2.0  |2.0  |2.0  |0.0  |
24 |0.0  |0.0  |0.0  |2.0  |2.0  |2.0  |2.0  |0.0  |
25 |0.0  |0.0  |0.0  |2.0  |2.0  |2.0  |2.0  |0.0  |
26 |0.0  |0.0  |0.0  |2.0  |2.0  |2.0  |2.0  |2.0  |
27 |0.0  |0.0  |2.0  |2.0  |2.0  |2.0  |2.0  |2.0  |
28 |0.0  |0.0  |0.0  |2.0  |2.0  |2.0  |2.0  |2.0  |
29 |0.0  |0.0  |0.0  |0.0  |2.0  |2.0  |2.0  |0.0  |
30 |0.0  |0.0  |0.0  |2.0  |2.0  |2.0  |2.0  |0.0  |
31 |0.0  |0.0  |0.0  |2.0  |2.0  |2.0  |2.0  |0.0  |
spillman I15N crashes:
Hr>|0  |2  |4  |6  |8  |10 |12 |14 |16 |18 |20 |22 |
Day|
0  |   |   |   |   |   |   |   |   |   |   |   |   |
1  |   |   |   |   |   |   |   |   |   |   |   |   |
2  |   |   |   |   |   |   |   |   |   |   |   |   |
3  |   |   |   |   |   |   |   |   |   |   |   |   |
4  |   |   |   |   |   |   |   |   |   |   |   |   |
5  |   |   |   |   |   |   |   |   |   |   |   |   |
6  |   |   |   |   |   |   |   |   |   |   |   |   |
7  |   |   |   |   |   |   |   |   |   |   |   |   |
8  |   |   |   |   |   |   |   |   |   |   |   |   |
9  |   |   |   |   |3 |   |   |2 |   |   |   |   |
10 |   |   |   |   |   |   |   |   |2 |1  |   |1  |
11 |   |   |   |   |   |   |1  |2 |3 |   |   |   |
12 |   |   |   |   |   |   |3 |   |   |1  |   |1  |
13 |   |   |   |   |   |1  |1  |2 |1  |   |1  |1  |
14 |   |   |   |   |   |   |1  |   |   |1  |   |1  |
15 |   |1  |   |1  |   |   |   |   |   |   |   |   |
16 |1  |   |   |   |   |   |   |1  |   |2 |   |1  |
17 |   |   |2 |   |   |   |1  |2 |   |   |   |   |
18 |   |   |   |   |   |   |   |2 |   |1  |   |1  |
19 |   |   |   |   |   |   |   |2 |   |1  |   |   |
20 |   |   |   |   |3 |1  |   |   |   |4 |1  |2 |
21 |   |   |   |1  |   |   |2 |1  |   |1  |1  |3 |
22 |   |1  |1  |1  |2 |   |   |1  |3 |2 |   |   |
23 |   |   |   |   |   |   |3 |3 |1  |   |   |   |
24 |   |1  |   |1  |   |   |   |1  |4 |1  |   |2 |
25 |   |1  |   |   |   |   |   |   |   |1  |1  |1  |
26 |   |   |   |   |   |1  |1  |   |3 |1  |   |   |
27 |   |   |   |   |5 |3 |   |3 |3 |2 |1  |2 |
28 |1  |   |   |   |2 |1  |3 |3 |   |   |   |   |
29 |   |   |   |1  |   |   |2 |1  |   |1  |   |   |
30 |   |   |   |   |   |   |1  |1  |1  |1  |1  |   |
31 |   |   |   |   |   |   |   |   |   |   |   |   |
spillman I15S predictions:
Hr>| 6   | 8   |10   |12   |14   |16   |18   |20   |
Day|
0  |     |     |     |     |     |     |     |     |
1  |     |     |     |     |     |     |     |     |
2  |     |     |     |     |     |     |     |     |
3  |     |     |     |     |     |     |     |     |
4  |     |     |     |     |     |     |     |     |
5  |     |     |     |     |     |     |     |     |
6  |     |     |     |     |     |     |     |     |
7  |     |     |     |     |     |     |     |     |
8  |     |     |     |     |     |     |     |     |
9  |     |2.0  |2.0  |2.0  |2.0  |0.0  |0.0  |0.0  |
10 |0.0  |0.0  |0.0  |2.0  |2.0  |0.0  |2.0  |0.0  |
11 |0.0  |0.0  |0.0  |2.0  |2.0  |0.0  |0.0  |0.0  |
12 |0.0  |0.0  |0.0  |0.0  |0.0  |0.0  |2.0  |2.0  |
13 |0.0  |0.0  |0.0  |2.0  |2.0  |0.0  |2.0  |2.0  |
14 |0.0  |0.0  |0.0  |2.0  |2.0  |2.0  |2.0  |0.0  |
15 |0.0  |0.0  |0.0  |0.0  |2.0  |2.0  |2.0  |2.0  |
16 |0.0  |2.0  |2.0  |2.0  |2.0  |0.0  |0.0  |0.0  |
17 |0.0  |0.0  |0.0  |2.0  |2.0  |0.0  |2.0  |0.0  |
18 |0.0  |0.0  |0.0  |2.0  |2.0  |0.0  |2.0  |0.0  |
19 |0.0  |0.0  |0.0  |0.0  |0.0  |0.0  |2.0  |2.0  |
20 |0.0  |0.0  |0.0  |2.0  |2.0  |0.0  |2.0  |2.0  |
21 |0.0  |0.0  |0.0  |2.0  |2.0  |2.0  |2.0  |0.0  |
22 |0.0  |0.0  |0.0  |0.0  |2.0  |2.0  |2.0  |2.0  |
23 |0.0  |2.0  |2.0  |2.0  |2.0  |0.0  |0.0  |0.0  |
24 |0.0  |0.0  |0.0  |2.0  |2.0  |0.0  |2.0  |0.0  |
25 |0.0  |0.0  |0.0  |2.0  |2.0  |0.0  |0.0  |0.0  |
26 |0.0  |0.0  |0.0  |0.0  |0.0  |0.0  |2.0  |2.0  |
27 |0.0  |0.0  |0.0  |2.0  |2.0  |0.0  |2.0  |2.0  |
28 |0.0  |0.0  |0.0  |2.0  |2.0  |2.0  |2.0  |0.0  |
29 |0.0  |0.0  |0.0  |0.0  |2.0  |2.0  |2.0  |2.0  |
30 |0.0  |2.0  |2.0  |2.0  |2.0  |0.0  |0.0  |0.0  |
31 |0.0  |0.0  |0.0  |2.0  |2.0  |0.0  |2.0  |0.0  |
spillman I15S crashes:
Hr>|0  |2  |4  |6  |8  |10 |12 |14 |16 |18 |20 |22 |
Day|
0  |   |   |   |   |   |   |   |   |   |   |   |   |
1  |   |   |   |   |   |   |   |   |   |   |   |   |
2  |   |   |   |   |   |   |   |   |   |   |   |   |
3  |   |   |   |   |   |   |   |   |   |   |   |   |
4  |   |   |   |   |   |   |   |   |   |   |   |   |
5  |   |   |   |   |   |   |   |   |   |   |   |   |
6  |   |   |   |   |   |   |   |   |   |   |   |   |
7  |   |   |   |   |   |   |   |   |   |   |   |   |
8  |   |   |   |   |   |   |   |   |   |   |   |   |
9  |   |   |   |   |   |   |1  |2  |   |   |   |   |
10 |   |   |   |   |   |   |   |   |1  |   |   |   |
11 |   |   |   |   |   |1  |   |   |   |   |   |   |
12 |   |   |   |1  |   |   |   |   |   |1  |   |   |
13 |   |   |   |   |   |   |   |   |   |2  |   |   |
14 |   |   |   |   |   |   |   |   |   |   |   |   |
15 |   |   |   |   |   |   |1  |   |   |1  |   |   |
16 |   |   |   |   |   |   |   |1  |   |   |   |   |
17 |   |   |   |1  |   |   |   |   |   |1  |   |1  |
18 |   |   |   |   |   |   |   |1  |   |   |   |1  |
19 |   |   |1  |   |1  |   |   |   |   |   |1  |   |
20 |   |   |   |   |   |   |   |   |   |1  |   |   |
21 |   |   |   |   |   |   |   |1  |   |   |   |   |
22 |   |   |2  |   |   |   |   |   |   |1  |   |   |
23 |1  |   |   |   |   |   |2  |   |1  |1  |   |   |
24 |   |   |   |1  |   |   |   |   |   |   |   |   |
25 |   |   |   |   |   |   |1  |1  |   |   |   |   |
26 |   |   |   |   |   |   |   |1  |1  |   |   |   |
27 |   |   |   |1  |   |1  |   |1  |1  |   |   |   |
28 |   |   |   |   |   |1  |   |   |2  |   |   |   |
29 |1  |   |   |   |   |1  |   |   |   |   |2  |   |
30 |   |   |   |1  |   |1  |   |1  |   |   |   |   |
31 |   |   |   |   |   |   |   |   |   |   |   |   |
