I15N:
total_number_of_accidents_predicted_correctly_I15N: 169
total_accidents_slots_predicted_I15N: 101
total_crashes_in_slots_I15N: 205
accident hit rate I15N (accidents predicted correctly/total accidents)(%): 82.4390243902439
accident slot hit rate I15N (accident slots predicted correctly/total accident slots)(%): 80.24691358024691
Total accident slots predicted correctly I15N: 65
Total accident slots I15N: 81
Total accidents I15N: 239
Total slots I15N: 439
Non-Accident hit-rate (predicted correct noncrash slots/total noncrash slots) I15N: 80.48780487804879
Average slots hit rate I15N: 80.36735922914785
accident miss rate I15N (accidents predicted correctly/total accidents)(%): 17.560975609756103
accident slot miss rate I15N (accident slots predicted correctly/total accident slots)(%): 19.753086419753085




I15S:
total_number_of_accidents_predicted_correctly_I15S: 36
total_accidents_slots_predicted_I15S: 77
total_crashes_in_slots_I15S: 65
accident hit rate I15S (accidents predicted correctly/total accidents)(%): 55.38461538461539
accident slot hit rate I15S (accident slots predicted correctly/total accident slots)(%): 51.06382978723404
Total accident slots predicted correctly I15S: 24
Total accident slots I15S: 47
Total accidents I15S: 72
Total slots I15S: 439
Non-Accident hit-rate (predicted correct noncrash slots/total noncrash slots) I15S: 78.30188679245283
Average slots hit rate I15S: 64.68285828984344
accident miss rate I15S (1-accidents predicted correctly/total accidents)(%): 44.61538461538461
accident slot miss rate I15S (1-accident slots predicted correctly/total accident slots)(%): 48.93617021276596




US95N:
total_number_of_accidents_predicted_correctly_US95N: 8
total_accidents_slots_predicted_US95N: 42
total_crashes_in_slots_US95N: 25
accident hit rate US95N (accidents predicted correctly/total accidents)(%): 32.0
accident slot hit rate US95N (accident slots predicted correctly/total accident slots)(%): 30.0
Total accident slots predicted correctly US95N: 6
Total accident slots US95N: 20
Total slots US95N: 36
Total accidents US95N: 36
Total slots US95N: 439
Non-Accident hit-rate (predicted correct noncrash slots/total noncrash slots) US95N: 90.0709219858156
Average slots hit rate US95N: 60.0354609929078
accident miss rate US95N (1-accidents predicted correctly/total accidents)(%): 68.0
accident slot miss rate US95N (1-accident slots predicted correctly/total accident slots)(%): 70.0




US95S:
total_number_of_accidents_predicted_correctly_US95S: 10
total_accidents_slots_predicted_US95S: 51
total_crashes_in_slots_US95S: 45
accident hit rate US95S (accidents predicted correctly/total accidents)(%): 22.22222222222222
accident slot hit rate US95S (accident slots predicted correctly/total accident slots)(%): 33.33333333333333
Total accident slots predicted correctly US95S: 10
Total accident slots US95S: 30
Total accidents US95S: 54
Total slots US95S: 439
Non-Accident hit-rate (predicted correct noncrash slots/total noncrash slots) US95S: 84.84848484848484
Average slots hit rate US95S: 59.090909090909086
accident miss rate US95S (1-accidents predicted correctly/total accidents)(%): 77.77777777777779
accident slot miss rate US95S (1-accident slots predicted correctly/total accident slots)(%): 66.66666666666667
spillman_waycare US95N predictions:
Hr>| 6   | 8   |10   |12   |14   |16   |18   |20   |
Day|
0  |     |     |     |     |     |     |     |     |
1  |     |     |     |     |     |     |     |     |
2  |     |     |     |     |     |     |     |     |
3  |     |     |     |     |     |     |     |     |
4  |     |     |     |     |     |     |     |     |
5  |     |     |     |     |     |     |     |     |
6  |     |     |     |     |     |     |     |     |
7  |     |     |     |     |     |     |     |     |
8  |     |     |     |     |     |     |     |     |
9  |     |0.0  |0.0  |0.0  |0.0  |2.0  |2.0  |0.0  |
10 |0.0  |2.0  |0.0  |0.0  |0.0  |2.0  |0.0  |0.0  |
11 |0.0  |2.0  |0.0  |0.0  |0.0  |2.0  |2.0  |0.0  |
12 |0.0  |2.0  |0.0  |2.0  |0.0  |2.0  |0.0  |0.0  |
13 |2.0  |0.0  |0.0  |0.0  |0.0  |0.0  |0.0  |0.0  |
14 |0.0  |2.0  |2.0  |0.0  |0.0  |0.0  |0.0  |0.0  |
15 |0.0  |0.0  |0.0  |0.0  |0.0  |0.0  |0.0  |0.0  |
16 |0.0  |0.0  |0.0  |0.0  |0.0  |2.0  |2.0  |0.0  |
17 |0.0  |2.0  |0.0  |0.0  |0.0  |2.0  |0.0  |0.0  |
18 |0.0  |2.0  |0.0  |0.0  |0.0  |2.0  |0.0  |0.0  |
19 |0.0  |2.0  |0.0  |2.0  |0.0  |2.0  |0.0  |0.0  |
20 |2.0  |0.0  |0.0  |0.0  |0.0  |0.0  |0.0  |0.0  |
21 |0.0  |2.0  |2.0  |0.0  |0.0  |0.0  |0.0  |0.0  |
22 |0.0  |0.0  |0.0  |0.0  |0.0  |0.0  |0.0  |0.0  |
23 |0.0  |0.0  |0.0  |0.0  |0.0  |2.0  |2.0  |0.0  |
24 |0.0  |2.0  |0.0  |0.0  |0.0  |2.0  |0.0  |0.0  |
25 |0.0  |2.0  |0.0  |0.0  |0.0  |2.0  |2.0  |0.0  |
26 |0.0  |2.0  |0.0  |2.0  |0.0  |2.0  |0.0  |0.0  |
27 |2.0  |0.0  |0.0  |0.0  |0.0  |0.0  |0.0  |0.0  |
28 |0.0  |2.0  |2.0  |0.0  |0.0  |0.0  |0.0  |0.0  |
29 |0.0  |0.0  |0.0  |0.0  |0.0  |0.0  |0.0  |0.0  |
30 |0.0  |0.0  |0.0  |0.0  |0.0  |2.0  |2.0  |0.0  |
31 |0.0  |2.0  |0.0  |0.0  |0.0  |2.0  |0.0  |0.0  |
spillman_waycare US95N crashes:
Hr>|0  |2  |4  |6  |8  |10 |12 |14 |16 |18 |20 |22 |
Day|
0  |   |   |   |   |   |   |   |   |   |   |   |   |
1  |   |   |   |   |   |   |   |   |   |   |   |   |
2  |   |   |   |   |   |   |   |   |   |   |   |   |
3  |   |   |   |   |   |   |   |   |   |   |   |   |
4  |   |   |   |   |   |   |   |   |   |   |   |   |
5  |   |   |   |   |   |   |   |   |   |   |   |   |
6  |   |   |   |   |   |   |   |   |   |   |   |   |
7  |   |   |   |   |   |   |   |   |   |   |   |   |
8  |   |   |   |   |   |   |   |   |   |   |   |   |
9  |   |   |   |   |   |   |   |   |   |   |   |   |
10 |   |   |   |   |   |   |   |   |2  |1 |   |   |
11 |   |   |   |1 |   |   |   |   |2  |   |   |   |
12 |   |   |   |   |   |   |   |   |   |   |   |   |
13 |   |   |   |   |   |   |   |   |   |1 |   |   |
14 |   |   |   |   |   |   |   |   |   |   |   |   |
15 |6  |   |   |   |   |   |   |   |   |   |   |   |
16 |   |   |   |   |   |1 |1 |   |   |   |   |   |
17 |   |   |   |   |   |   |   |3  |1 |   |   |   |
18 |   |   |   |   |   |2  |   |   |1 |1 |   |   |
19 |   |   |   |   |   |   |   |   |1 |1 |   |   |
20 |   |   |1 |   |   |   |   |   |   |   |   |   |
21 |   |   |   |   |   |   |   |1 |   |   |   |   |
22 |   |   |   |   |   |   |   |   |   |   |   |1 |
23 |   |   |   |   |1 |   |   |   |   |   |   |   |
24 |   |   |   |   |   |   |   |   |   |   |   |   |
25 |   |1 |   |   |   |   |   |1 |   |   |   |   |
26 |   |   |   |   |   |   |   |   |   |   |1 |   |
27 |   |   |   |   |   |   |   |   |   |1 |   |   |
28 |   |   |1 |   |   |   |   |   |   |   |   |   |
29 |   |   |   |   |   |   |   |   |   |   |   |   |
30 |   |   |   |   |   |   |   |   |   |1 |   |1 |
31 |   |   |   |   |   |   |   |   |   |   |   |   |
spillman_waycare US95S predictions:
Hr>| 6   | 8   |10   |12   |14   |16   |18   |20   |
Day|
0  |     |     |     |     |     |     |     |     |
1  |     |     |     |     |     |     |     |     |
2  |     |     |     |     |     |     |     |     |
3  |     |     |     |     |     |     |     |     |
4  |     |     |     |     |     |     |     |     |
5  |     |     |     |     |     |     |     |     |
6  |     |     |     |     |     |     |     |     |
7  |     |     |     |     |     |     |     |     |
8  |     |     |     |     |     |     |     |     |
9  |     |2.0  |0.0  |0.0  |0.0  |0.0  |0.0  |0.0  |
10 |2.0  |2.0  |0.0  |0.0  |0.0  |0.0  |0.0  |0.0  |
11 |2.0  |2.0  |0.0  |0.0  |0.0  |0.0  |0.0  |0.0  |
12 |2.0  |2.0  |2.0  |0.0  |2.0  |0.0  |0.0  |0.0  |
13 |2.0  |2.0  |2.0  |0.0  |0.0  |2.0  |0.0  |0.0  |
14 |0.0  |0.0  |2.0  |0.0  |0.0  |0.0  |0.0  |0.0  |
15 |0.0  |0.0  |2.0  |0.0  |0.0  |0.0  |0.0  |0.0  |
16 |2.0  |2.0  |0.0  |0.0  |0.0  |0.0  |0.0  |0.0  |
17 |2.0  |2.0  |0.0  |0.0  |0.0  |0.0  |0.0  |0.0  |
18 |2.0  |2.0  |0.0  |0.0  |0.0  |0.0  |0.0  |0.0  |
19 |2.0  |2.0  |2.0  |0.0  |2.0  |0.0  |0.0  |0.0  |
20 |2.0  |2.0  |2.0  |0.0  |0.0  |2.0  |0.0  |0.0  |
21 |0.0  |0.0  |2.0  |0.0  |0.0  |0.0  |0.0  |0.0  |
22 |0.0  |0.0  |2.0  |0.0  |0.0  |0.0  |0.0  |0.0  |
23 |2.0  |2.0  |0.0  |0.0  |0.0  |0.0  |0.0  |0.0  |
24 |2.0  |2.0  |0.0  |0.0  |0.0  |0.0  |0.0  |0.0  |
25 |2.0  |2.0  |0.0  |0.0  |0.0  |0.0  |0.0  |0.0  |
26 |2.0  |2.0  |2.0  |0.0  |2.0  |0.0  |0.0  |0.0  |
27 |2.0  |2.0  |2.0  |0.0  |0.0  |2.0  |0.0  |0.0  |
28 |0.0  |0.0  |2.0  |0.0  |0.0  |0.0  |0.0  |0.0  |
29 |0.0  |0.0  |2.0  |0.0  |0.0  |0.0  |0.0  |0.0  |
30 |2.0  |2.0  |0.0  |0.0  |0.0  |0.0  |0.0  |0.0  |
31 |2.0  |2.0  |0.0  |0.0  |0.0  |0.0  |0.0  |0.0  |
spillman_waycare US95S crashes:
Hr>|0  |2  |4  |6  |8  |10 |12 |14 |16 |18 |20 |22 |
Day|
0  |   |   |   |   |   |   |   |   |   |   |   |   |
1  |   |   |   |   |   |   |   |   |   |   |   |   |
2  |   |   |   |   |   |   |   |   |   |   |   |   |
3  |   |   |   |   |   |   |   |   |   |   |   |   |
4  |   |   |   |   |   |   |   |   |   |   |   |   |
5  |   |   |   |   |   |   |   |   |   |   |   |   |
6  |   |   |   |   |   |   |   |   |   |   |   |   |
7  |   |   |   |   |   |   |   |   |   |   |   |   |
8  |   |   |   |   |   |   |   |   |   |   |   |   |
9  |   |   |   |   |   |3 |   |   |   |   |   |   |
10 |   |   |   |   |   |   |   |1  |1  |   |   |   |
11 |   |   |   |   |1  |   |   |   |   |1  |1  |1  |
12 |   |   |   |1  |   |   |   |   |   |   |3 |2 |
13 |   |   |   |   |   |   |   |   |1  |   |   |   |
14 |   |   |   |   |   |   |   |   |   |   |   |   |
15 |1  |   |   |   |   |   |   |   |   |   |   |   |
16 |   |   |   |   |   |   |2 |   |   |   |   |   |
17 |   |   |   |   |   |   |   |1  |   |   |   |   |
18 |   |   |   |   |   |   |   |   |   |3 |   |   |
19 |   |   |   |   |   |   |   |1  |   |   |   |   |
20 |   |   |   |   |   |   |   |   |   |1  |3 |1  |
21 |   |   |   |   |   |   |   |4 |   |1  |   |   |
22 |   |   |   |   |   |   |   |   |   |   |   |   |
23 |   |   |   |   |   |   |   |   |1  |   |   |1  |
24 |   |   |   |   |   |   |   |   |   |   |   |   |
25 |   |   |   |1  |   |   |1  |2 |   |   |   |   |
26 |   |   |   |   |1  |   |   |1  |   |   |   |   |
27 |   |   |   |   |   |   |   |   |1  |   |   |   |
28 |   |   |1  |   |   |1  |   |   |   |   |   |   |
29 |2 |   |   |   |   |   |   |   |   |2 |   |   |
30 |   |   |   |   |1  |2 |   |1  |   |1  |   |   |
31 |   |   |   |   |   |   |   |   |   |   |   |   |
spillman_waycare I15N predictions:
Hr>| 6   | 8   |10   |12   |14   |16   |18   |20   |
Day|
0  |     |     |     |     |     |     |     |     |
1  |     |     |     |     |     |     |     |     |
2  |     |     |     |     |     |     |     |     |
3  |     |     |     |     |     |     |     |     |
4  |     |     |     |     |     |     |     |     |
5  |     |     |     |     |     |     |     |     |
6  |     |     |     |     |     |     |     |     |
7  |     |     |     |     |     |     |     |     |
8  |     |     |     |     |     |     |     |     |
9  |     |0.0  |0.0  |2.0  |2.0  |2.0  |2.0  |0.0  |
10 |0.0  |0.0  |0.0  |2.0  |2.0  |2.0  |2.0  |0.0  |
11 |0.0  |0.0  |0.0  |2.0  |2.0  |2.0  |2.0  |0.0  |
12 |0.0  |0.0  |0.0  |2.0  |2.0  |2.0  |2.0  |2.0  |
13 |0.0  |0.0  |2.0  |2.0  |2.0  |2.0  |2.0  |2.0  |
14 |0.0  |0.0  |0.0  |2.0  |2.0  |2.0  |2.0  |2.0  |
15 |0.0  |0.0  |0.0  |0.0  |2.0  |2.0  |2.0  |0.0  |
16 |0.0  |0.0  |0.0  |2.0  |2.0  |2.0  |2.0  |0.0  |
17 |0.0  |0.0  |0.0  |2.0  |2.0  |2.0  |2.0  |0.0  |
18 |0.0  |0.0  |0.0  |2.0  |2.0  |2.0  |2.0  |0.0  |
19 |0.0  |0.0  |0.0  |2.0  |2.0  |2.0  |2.0  |2.0  |
20 |0.0  |0.0  |2.0  |2.0  |2.0  |2.0  |2.0  |2.0  |
21 |0.0  |0.0  |0.0  |2.0  |2.0  |2.0  |2.0  |2.0  |
22 |0.0  |0.0  |0.0  |0.0  |2.0  |2.0  |2.0  |0.0  |
23 |0.0  |0.0  |0.0  |2.0  |2.0  |2.0  |2.0  |0.0  |
24 |0.0  |0.0  |0.0  |2.0  |2.0  |2.0  |2.0  |0.0  |
25 |0.0  |0.0  |0.0  |2.0  |2.0  |2.0  |2.0  |0.0  |
26 |0.0  |0.0  |0.0  |2.0  |2.0  |2.0  |2.0  |2.0  |
27 |0.0  |0.0  |2.0  |2.0  |2.0  |2.0  |2.0  |2.0  |
28 |0.0  |0.0  |0.0  |2.0  |2.0  |2.0  |2.0  |2.0  |
29 |0.0  |0.0  |0.0  |0.0  |2.0  |2.0  |2.0  |0.0  |
30 |0.0  |0.0  |0.0  |2.0  |2.0  |2.0  |2.0  |0.0  |
31 |0.0  |0.0  |0.0  |2.0  |2.0  |2.0  |2.0  |0.0  |
spillman_waycare I15N crashes:
Hr>|0  |2  |4  |6  |8  |10 |12 |14 |16 |18 |20 |22 |
Day|
0  |   |   |   |   |   |   |   |   |   |   |   |   |
1  |   |   |   |   |   |   |   |   |   |   |   |   |
2  |   |   |   |   |   |   |   |   |   |   |   |   |
3  |   |   |   |   |   |   |   |   |   |   |   |   |
4  |   |   |   |   |   |   |   |   |   |   |   |   |
5  |   |   |   |   |   |   |   |   |   |   |   |   |
6  |   |   |   |   |   |   |   |   |   |   |   |   |
7  |   |   |   |   |   |   |   |   |   |   |   |   |
8  |   |   |   |   |   |   |   |   |   |   |   |   |
9  |   |   |   |   |3 |   |   |2 |2 |   |   |   |
10 |   |   |   |   |   |   |   |   |3 |1  |   |1  |
11 |   |   |   |   |   |   |1  |6 |4 |   |   |   |
12 |   |   |   |   |   |   |5 |   |   |1  |3 |1  |
13 |   |   |   |   |   |2 |1  |4 |3 |   |1  |1  |
14 |   |   |   |   |   |   |2 |   |   |1  |1  |1  |
15 |   |1  |   |1  |   |   |1  |   |   |   |   |   |
16 |1  |   |   |   |   |   |   |1  |   |3 |   |1  |
17 |1  |   |3 |   |   |   |2 |2 |   |   |   |   |
18 |   |   |   |   |   |   |   |3 |1  |1  |   |1  |
19 |   |   |   |   |   |   |   |2 |   |2 |   |   |
20 |   |   |   |   |4 |1  |   |2 |   |6 |1  |2 |
21 |   |   |   |1  |   |   |4 |1  |1  |3 |1  |4 |
22 |   |1  |1  |1  |2 |   |   |1  |4 |5 |   |   |
23 |   |   |   |   |   |   |5 |5 |1  |   |   |   |
24 |   |1  |   |2 |   |   |   |1  |5 |3 |   |3 |
25 |   |1  |   |   |   |   |1  |   |   |1  |1  |1  |
26 |   |   |   |   |   |2 |1  |1  |6 |2 |   |   |
27 |   |   |   |   |6 |6 |   |3 |8 |3 |2 |7 |
28 |1  |   |   |   |3 |4 |5 |7 |1  |   |   |   |
29 |   |   |   |1  |   |   |3 |3 |   |3 |   |   |
30 |   |   |   |   |   |   |1  |2 |2 |1  |1  |   |
31 |   |   |   |   |   |   |   |   |   |   |   |   |
spillman_waycare I15S predictions:
Hr>| 6   | 8   |10   |12   |14   |16   |18   |20   |
Day|
0  |     |     |     |     |     |     |     |     |
1  |     |     |     |     |     |     |     |     |
2  |     |     |     |     |     |     |     |     |
3  |     |     |     |     |     |     |     |     |
4  |     |     |     |     |     |     |     |     |
5  |     |     |     |     |     |     |     |     |
6  |     |     |     |     |     |     |     |     |
7  |     |     |     |     |     |     |     |     |
8  |     |     |     |     |     |     |     |     |
9  |     |2.0  |2.0  |2.0  |2.0  |0.0  |0.0  |0.0  |
10 |0.0  |0.0  |0.0  |2.0  |2.0  |0.0  |2.0  |0.0  |
11 |0.0  |0.0  |0.0  |2.0  |2.0  |0.0  |0.0  |0.0  |
12 |0.0  |0.0  |0.0  |0.0  |0.0  |0.0  |2.0  |2.0  |
13 |0.0  |0.0  |0.0  |2.0  |2.0  |0.0  |2.0  |2.0  |
14 |0.0  |0.0  |0.0  |2.0  |2.0  |2.0  |2.0  |0.0  |
15 |0.0  |0.0  |0.0  |0.0  |2.0  |2.0  |2.0  |2.0  |
16 |0.0  |2.0  |2.0  |2.0  |2.0  |0.0  |0.0  |0.0  |
17 |0.0  |0.0  |0.0  |2.0  |2.0  |0.0  |2.0  |0.0  |
18 |0.0  |0.0  |0.0  |2.0  |2.0  |0.0  |2.0  |0.0  |
19 |0.0  |0.0  |0.0  |0.0  |0.0  |0.0  |2.0  |2.0  |
20 |0.0  |0.0  |0.0  |2.0  |2.0  |0.0  |2.0  |2.0  |
21 |0.0  |0.0  |0.0  |2.0  |2.0  |2.0  |2.0  |0.0  |
22 |0.0  |0.0  |0.0  |0.0  |2.0  |2.0  |2.0  |2.0  |
23 |0.0  |2.0  |2.0  |2.0  |2.0  |0.0  |0.0  |0.0  |
24 |0.0  |0.0  |0.0  |2.0  |2.0  |0.0  |2.0  |0.0  |
25 |0.0  |0.0  |0.0  |2.0  |2.0  |0.0  |0.0  |0.0  |
26 |0.0  |0.0  |0.0  |0.0  |0.0  |0.0  |2.0  |2.0  |
27 |0.0  |0.0  |0.0  |2.0  |2.0  |0.0  |2.0  |2.0  |
28 |0.0  |0.0  |0.0  |2.0  |2.0  |2.0  |2.0  |0.0  |
29 |0.0  |0.0  |0.0  |0.0  |2.0  |2.0  |2.0  |2.0  |
30 |0.0  |2.0  |2.0  |2.0  |2.0  |0.0  |0.0  |0.0  |
31 |0.0  |0.0  |0.0  |2.0  |2.0  |0.0  |2.0  |0.0  |
spillman_waycare I15S crashes:
Hr>|0  |2  |4  |6  |8  |10 |12 |14 |16 |18 |20 |22 |
Day|
0  |   |   |   |   |   |   |   |   |   |   |   |   |
1  |   |   |   |   |   |   |   |   |   |   |   |   |
2  |   |   |   |   |   |   |   |   |   |   |   |   |
3  |   |   |   |   |   |   |   |   |   |   |   |   |
4  |   |   |   |   |   |   |   |   |   |   |   |   |
5  |   |   |   |   |   |   |   |   |   |   |   |   |
6  |   |   |   |   |   |   |   |   |   |   |   |   |
7  |   |   |   |   |   |   |   |   |   |   |   |   |
8  |   |   |   |   |   |   |   |   |   |   |   |   |
9  |   |   |   |   |   |   |1  |3  |1  |   |   |   |
10 |   |   |   |   |   |   |   |   |1  |   |1  |   |
11 |   |   |   |   |   |1  |   |   |   |   |   |   |
12 |   |   |   |2  |1  |   |   |   |   |3  |   |   |
13 |   |   |   |   |   |   |   |   |   |2  |1  |   |
14 |   |   |   |1  |1  |   |   |1  |   |   |   |   |
15 |   |   |   |   |   |   |3  |   |   |1  |   |   |
16 |   |   |   |   |   |   |   |1  |   |   |   |   |
17 |   |   |   |1  |   |   |   |   |   |2  |   |1  |
18 |   |   |   |   |   |   |   |1  |   |   |   |1  |
19 |   |   |1  |   |1  |   |   |   |   |   |1  |   |
20 |   |   |   |   |   |   |   |   |   |1  |   |   |
21 |   |   |   |   |   |   |   |1  |   |   |   |   |
22 |   |   |2  |   |   |   |   |   |   |1  |   |   |
23 |1  |   |   |   |   |   |2  |   |1  |1  |   |   |
24 |   |   |   |1  |   |   |   |   |   |   |   |   |
25 |   |   |   |   |   |   |3  |1  |1  |   |   |   |
26 |   |   |   |   |   |   |   |1  |3  |   |   |   |
27 |   |   |   |1  |   |1  |   |1  |2  |   |   |   |
28 |   |   |   |   |   |1  |   |1  |3  |   |   |   |
29 |1  |   |   |   |   |1  |   |   |   |   |2  |   |
30 |   |   |   |1  |   |1  |   |1  |   |   |   |   |
31 |   |   |   |   |   |   |1  |   |   |   |   |   |
