I15N:
total_number_of_accidents_predicted_correctly_I15N: 182
total_accidents_slots_predicted_I15N: 110
total_crashes_in_slots_I15N: 215
accident hit rate I15N (accidents predicted correctly/total accidents)(%): 84.65116279069768
accident slot hit rate I15N (accident slots predicted correctly/total accident slots)(%): 79.76190476190477
Total accident slots predicted correctly I15N: 67
Total accident slots I15N: 84
Total accidents I15N: 239
Total slots I15N: 440
Non-Accident hit-rate (predicted correct noncrash slots/total noncrash slots) I15N: 77.02702702702703
Average slots hit rate I15N: 78.3944658944659
accident miss rate I15N (accidents predicted correctly/total accidents)(%): 15.348837209302324
accident slot miss rate I15N (accident slots predicted correctly/total accident slots)(%): 20.238095238095234




I15S:
total_number_of_accidents_predicted_correctly_I15S: 33
total_accidents_slots_predicted_I15S: 77
total_crashes_in_slots_I15S: 64
accident hit rate I15S (accidents predicted correctly/total accidents)(%): 51.5625
accident slot hit rate I15S (accident slots predicted correctly/total accident slots)(%): 48.93617021276596
Total accident slots predicted correctly I15S: 23
Total accident slots I15S: 47
Total accidents I15S: 72
Total slots I15S: 440
Non-Accident hit-rate (predicted correct noncrash slots/total noncrash slots) I15S: 77.57009345794393
Average slots hit rate I15S: 63.25313183535494
accident miss rate I15S (1-accidents predicted correctly/total accidents)(%): 48.4375
accident slot miss rate I15S (1-accident slots predicted correctly/total accident slots)(%): 51.06382978723405




US95N:
total_number_of_accidents_predicted_correctly_US95N: 8
total_accidents_slots_predicted_US95N: 42
total_crashes_in_slots_US95N: 25
accident hit rate US95N (accidents predicted correctly/total accidents)(%): 32.0
accident slot hit rate US95N (accident slots predicted correctly/total accident slots)(%): 25.0
Total accident slots predicted correctly US95N: 4
Total accident slots US95N: 16
Total slots US95N: 36
Total accidents US95N: 36
Total slots US95N: 440
Non-Accident hit-rate (predicted correct noncrash slots/total noncrash slots) US95N: 91.54929577464789
Average slots hit rate US95N: 58.274647887323944
accident miss rate US95N (1-accidents predicted correctly/total accidents)(%): 68.0
accident slot miss rate US95N (1-accident slots predicted correctly/total accident slots)(%): 75.0




US95S:
total_number_of_accidents_predicted_correctly_US95S: 4
total_accidents_slots_predicted_US95S: 35
total_crashes_in_slots_US95S: 49
accident hit rate US95S (accidents predicted correctly/total accidents)(%): 8.16326530612245
accident slot hit rate US95S (accident slots predicted correctly/total accident slots)(%): 12.121212121212121
Total accident slots predicted correctly US95S: 4
Total accident slots US95S: 33
Total accidents US95S: 54
Total slots US95S: 440
Non-Accident hit-rate (predicted correct noncrash slots/total noncrash slots) US95S: 80.53691275167785
Average slots hit rate US95S: 46.329062436444985
accident miss rate US95S (1-accidents predicted correctly/total accidents)(%): 91.83673469387756
accident slot miss rate US95S (1-accident slots predicted correctly/total accident slots)(%): 87.87878787878788
spillman_waycare US95N predictions:
Hr>| 6   | 8   |10   |12   |14   |16   |18   |20   |
Day|
0  |     |     |     |     |     |     |     |     |
1  |     |     |     |     |     |     |     |     |
2  |     |     |     |     |     |     |     |     |
3  |     |     |     |     |     |     |     |     |
4  |     |     |     |     |     |     |     |     |
5  |     |     |     |     |     |     |     |     |
6  |     |     |     |     |     |     |     |     |
7  |     |     |     |     |     |     |     |     |
8  |     |     |     |     |     |     |     |     |
9  |0.0  |0.0  |0.0  |0.0  |2.0  |2.0  |0.0  |0.0  |
10 |2.0  |0.0  |0.0  |0.0  |2.0  |0.0  |0.0  |0.0  |
11 |2.0  |0.0  |0.0  |0.0  |2.0  |2.0  |0.0  |0.0  |
12 |2.0  |0.0  |2.0  |0.0  |2.0  |0.0  |0.0  |0.0  |
13 |0.0  |0.0  |0.0  |0.0  |0.0  |0.0  |0.0  |0.0  |
14 |2.0  |2.0  |0.0  |0.0  |0.0  |0.0  |0.0  |2.0  |
15 |0.0  |0.0  |0.0  |0.0  |0.0  |0.0  |0.0  |0.0  |
16 |0.0  |0.0  |0.0  |0.0  |2.0  |2.0  |0.0  |0.0  |
17 |2.0  |0.0  |0.0  |0.0  |2.0  |0.0  |0.0  |0.0  |
18 |2.0  |0.0  |0.0  |0.0  |2.0  |0.0  |0.0  |0.0  |
19 |2.0  |0.0  |2.0  |0.0  |2.0  |0.0  |0.0  |0.0  |
20 |0.0  |0.0  |0.0  |0.0  |0.0  |0.0  |0.0  |0.0  |
21 |2.0  |2.0  |0.0  |0.0  |0.0  |0.0  |0.0  |2.0  |
22 |0.0  |0.0  |0.0  |0.0  |0.0  |0.0  |0.0  |0.0  |
23 |0.0  |0.0  |0.0  |0.0  |2.0  |2.0  |0.0  |0.0  |
24 |2.0  |0.0  |0.0  |0.0  |2.0  |0.0  |0.0  |0.0  |
25 |2.0  |0.0  |0.0  |0.0  |2.0  |2.0  |0.0  |0.0  |
26 |2.0  |0.0  |2.0  |0.0  |2.0  |0.0  |0.0  |0.0  |
27 |0.0  |0.0  |0.0  |0.0  |0.0  |0.0  |0.0  |0.0  |
28 |2.0  |2.0  |0.0  |0.0  |0.0  |0.0  |0.0  |2.0  |
29 |0.0  |0.0  |0.0  |0.0  |0.0  |0.0  |0.0  |0.0  |
30 |0.0  |0.0  |0.0  |0.0  |2.0  |2.0  |0.0  |0.0  |
31 |2.0  |0.0  |0.0  |0.0  |2.0  |0.0  |0.0  |0.0  |
spillman_waycare US95N crashes:
Hr>|0  |2  |4  |6  |8  |10 |12 |14 |16 |18 |20 |22 |
Day|
0  |   |   |   |   |   |   |   |   |   |   |   |   |
1  |   |   |   |   |   |   |   |   |   |   |   |   |
2  |   |   |   |   |   |   |   |   |   |   |   |   |
3  |   |   |   |   |   |   |   |   |   |   |   |   |
4  |   |   |   |   |   |   |   |   |   |   |   |   |
5  |   |   |   |   |   |   |   |   |   |   |   |   |
6  |   |   |   |   |   |   |   |   |   |   |   |   |
7  |   |   |   |   |   |   |   |   |   |   |   |   |
8  |   |   |   |   |   |   |   |   |   |   |   |   |
9  |   |   |   |   |   |   |   |   |   |   |   |   |
10 |   |   |   |   |   |   |   |   |3  |   |   |   |
11 |   |   |1  |   |   |   |   |   |2  |   |   |   |
12 |   |   |   |   |   |   |   |   |   |   |   |   |
13 |   |   |   |   |   |   |   |   |   |1  |   |   |
14 |   |   |   |   |   |   |   |   |   |   |   |1  |
15 |5  |   |   |   |   |   |   |   |   |   |   |   |
16 |   |   |   |   |   |2  |   |   |   |   |   |   |
17 |   |   |   |   |   |   |   |4  |   |   |   |   |
18 |   |   |   |   |2  |   |   |   |2  |   |   |   |
19 |   |   |   |   |   |   |   |1  |1  |   |   |   |
20 |   |1  |   |   |   |   |   |   |   |   |   |   |
21 |   |   |   |   |   |   |   |1  |   |   |   |   |
22 |   |   |   |   |   |   |   |   |   |   |   |1  |
23 |   |   |   |1  |   |   |   |   |   |   |   |   |
24 |   |   |   |   |   |   |   |   |   |   |   |   |
25 |   |1  |   |   |   |   |1  |   |   |   |   |   |
26 |   |   |   |   |   |   |   |   |   |   |1  |   |
27 |   |   |   |   |   |   |   |   |1  |   |   |   |
28 |   |1  |   |   |   |   |   |   |   |   |   |   |
29 |   |   |   |   |   |   |   |   |   |   |   |   |
30 |   |   |   |   |   |   |   |   |1  |   |1  |   |
31 |   |   |   |   |   |   |   |   |   |   |   |   |
spillman_waycare US95S predictions:
Hr>| 6   | 8   |10   |12   |14   |16   |18   |20   |
Day|
0  |     |     |     |     |     |     |     |     |
1  |     |     |     |     |     |     |     |     |
2  |     |     |     |     |     |     |     |     |
3  |     |     |     |     |     |     |     |     |
4  |     |     |     |     |     |     |     |     |
5  |     |     |     |     |     |     |     |     |
6  |     |     |     |     |     |     |     |     |
7  |     |     |     |     |     |     |     |     |
8  |     |     |     |     |     |     |     |     |
9  |2.0  |0.0  |0.0  |0.0  |0.0  |0.0  |0.0  |0.0  |
10 |2.0  |0.0  |0.0  |0.0  |0.0  |0.0  |0.0  |0.0  |
11 |2.0  |0.0  |0.0  |0.0  |0.0  |0.0  |0.0  |0.0  |
12 |2.0  |2.0  |0.0  |2.0  |0.0  |0.0  |0.0  |0.0  |
13 |2.0  |2.0  |0.0  |0.0  |2.0  |0.0  |0.0  |0.0  |
14 |0.0  |2.0  |0.0  |0.0  |0.0  |0.0  |0.0  |0.0  |
15 |0.0  |2.0  |0.0  |0.0  |0.0  |0.0  |0.0  |0.0  |
16 |2.0  |0.0  |0.0  |0.0  |0.0  |0.0  |0.0  |0.0  |
17 |2.0  |0.0  |0.0  |0.0  |0.0  |0.0  |0.0  |0.0  |
18 |2.0  |0.0  |0.0  |0.0  |0.0  |0.0  |0.0  |0.0  |
19 |2.0  |2.0  |0.0  |2.0  |0.0  |0.0  |0.0  |0.0  |
20 |2.0  |2.0  |0.0  |0.0  |2.0  |0.0  |0.0  |0.0  |
21 |0.0  |2.0  |0.0  |0.0  |0.0  |0.0  |0.0  |0.0  |
22 |0.0  |2.0  |0.0  |0.0  |0.0  |0.0  |0.0  |0.0  |
23 |2.0  |0.0  |0.0  |0.0  |0.0  |0.0  |0.0  |0.0  |
24 |2.0  |0.0  |0.0  |0.0  |0.0  |0.0  |0.0  |0.0  |
25 |2.0  |0.0  |0.0  |0.0  |0.0  |0.0  |0.0  |0.0  |
26 |2.0  |2.0  |0.0  |2.0  |0.0  |0.0  |0.0  |0.0  |
27 |2.0  |2.0  |0.0  |0.0  |2.0  |0.0  |0.0  |0.0  |
28 |0.0  |2.0  |0.0  |0.0  |0.0  |0.0  |0.0  |0.0  |
29 |0.0  |2.0  |0.0  |0.0  |0.0  |0.0  |0.0  |0.0  |
30 |2.0  |0.0  |0.0  |0.0  |0.0  |0.0  |0.0  |0.0  |
31 |2.0  |0.0  |0.0  |0.0  |0.0  |0.0  |0.0  |0.0  |
spillman_waycare US95S crashes:
Hr>|0  |2  |4  |6  |8  |10 |12 |14 |16 |18 |20 |22 |
Day|
0  |   |   |   |   |   |   |   |   |   |   |   |   |
1  |   |   |   |   |   |   |   |   |   |   |   |   |
2  |   |   |   |   |   |   |   |   |   |   |   |   |
3  |   |   |   |   |   |   |   |   |   |   |   |   |
4  |   |   |   |   |   |   |   |   |   |   |   |   |
5  |   |   |   |   |   |   |   |   |   |   |   |   |
6  |   |   |   |   |   |   |   |   |   |   |   |   |
7  |   |   |   |   |   |   |   |   |   |   |   |   |
8  |   |   |   |   |   |   |   |   |   |   |   |   |
9  |   |   |   |   |3  |   |   |   |   |   |   |   |
10 |   |   |   |   |   |   |   |2  |   |   |   |   |
11 |   |   |   |   |1  |   |   |   |   |1  |1  |1  |
12 |   |   |   |1  |   |   |   |   |   |   |5  |   |
13 |   |   |   |   |   |   |   |   |1  |   |   |   |
14 |   |   |   |   |   |   |   |   |   |   |   |   |
15 |1  |   |   |   |   |   |   |   |   |   |   |   |
16 |   |   |   |   |   |   |2  |   |   |   |   |   |
17 |   |   |   |   |   |   |   |1  |   |   |   |   |
18 |   |   |   |   |   |   |   |   |   |3  |   |   |
19 |   |   |   |   |   |   |   |1  |   |   |   |   |
20 |   |   |   |   |   |   |   |   |1  |2  |2  |   |
21 |   |   |   |   |   |   |2  |2  |   |1  |   |   |
22 |   |   |   |   |   |   |   |   |   |   |   |   |
23 |   |   |   |   |   |   |   |1  |   |   |1  |   |
24 |   |   |   |   |   |   |   |   |   |   |   |   |
25 |   |   |   |1  |   |1  |1  |1  |   |   |   |   |
26 |   |   |   |   |1  |   |   |1  |   |   |   |   |
27 |   |   |   |   |   |   |   |1  |   |   |   |   |
28 |   |1  |   |   |   |1  |   |   |   |   |   |2  |
29 |   |   |   |   |   |   |   |   |1  |1  |   |   |
30 |   |   |   |   |3  |   |   |1  |1  |   |   |   |
31 |   |   |   |   |   |   |   |   |   |   |   |   |
spillman_waycare I15N predictions:
Hr>| 6   | 8   |10   |12   |14   |16   |18   |20   |
Day|
0  |     |     |     |     |     |     |     |     |
1  |     |     |     |     |     |     |     |     |
2  |     |     |     |     |     |     |     |     |
3  |     |     |     |     |     |     |     |     |
4  |     |     |     |     |     |     |     |     |
5  |     |     |     |     |     |     |     |     |
6  |     |     |     |     |     |     |     |     |
7  |     |     |     |     |     |     |     |     |
8  |     |     |     |     |     |     |     |     |
9  |0.0  |0.0  |2.0  |2.0  |2.0  |2.0  |0.0  |0.0  |
10 |0.0  |0.0  |2.0  |2.0  |2.0  |2.0  |0.0  |0.0  |
11 |0.0  |0.0  |2.0  |2.0  |2.0  |2.0  |0.0  |0.0  |
12 |0.0  |0.0  |2.0  |2.0  |2.0  |2.0  |2.0  |2.0  |
13 |0.0  |2.0  |2.0  |2.0  |2.0  |2.0  |2.0  |2.0  |
14 |0.0  |0.0  |2.0  |2.0  |2.0  |2.0  |2.0  |2.0  |
15 |0.0  |0.0  |0.0  |2.0  |2.0  |2.0  |0.0  |0.0  |
16 |0.0  |0.0  |2.0  |2.0  |2.0  |2.0  |0.0  |0.0  |
17 |0.0  |0.0  |2.0  |2.0  |2.0  |2.0  |0.0  |0.0  |
18 |0.0  |0.0  |2.0  |2.0  |2.0  |2.0  |0.0  |0.0  |
19 |0.0  |0.0  |2.0  |2.0  |2.0  |2.0  |2.0  |2.0  |
20 |0.0  |2.0  |2.0  |2.0  |2.0  |2.0  |2.0  |2.0  |
21 |0.0  |0.0  |2.0  |2.0  |2.0  |2.0  |2.0  |2.0  |
22 |0.0  |0.0  |0.0  |2.0  |2.0  |2.0  |0.0  |0.0  |
23 |0.0  |0.0  |2.0  |2.0  |2.0  |2.0  |0.0  |0.0  |
24 |0.0  |0.0  |2.0  |2.0  |2.0  |2.0  |0.0  |0.0  |
25 |0.0  |0.0  |2.0  |2.0  |2.0  |2.0  |0.0  |0.0  |
26 |0.0  |0.0  |2.0  |2.0  |2.0  |2.0  |2.0  |2.0  |
27 |0.0  |2.0  |2.0  |2.0  |2.0  |2.0  |2.0  |2.0  |
28 |0.0  |0.0  |2.0  |2.0  |2.0  |2.0  |2.0  |2.0  |
29 |0.0  |0.0  |0.0  |2.0  |2.0  |2.0  |0.0  |0.0  |
30 |0.0  |0.0  |2.0  |2.0  |2.0  |2.0  |0.0  |0.0  |
31 |0.0  |0.0  |2.0  |2.0  |2.0  |2.0  |0.0  |0.0  |
spillman_waycare I15N crashes:
Hr>|0  |2  |4  |6  |8  |10 |12 |14 |16 |18 |20 |22 |
Day|
0  |   |   |   |   |   |   |   |   |   |   |   |   |
1  |   |   |   |   |   |   |   |   |   |   |   |   |
2  |   |   |   |   |   |   |   |   |   |   |   |   |
3  |   |   |   |   |   |   |   |   |   |   |   |   |
4  |   |   |   |   |   |   |   |   |   |   |   |   |
5  |   |   |   |   |   |   |   |   |   |   |   |   |
6  |   |   |   |   |   |   |   |   |   |   |   |   |
7  |   |   |   |   |   |   |   |   |   |   |   |   |
8  |   |   |   |   |   |   |   |   |   |   |   |   |
9  |   |   |   |2  |1  |   |1  |2  |1  |   |   |   |
10 |   |   |   |   |   |   |   |2  |1  |1  |   |1  |
11 |   |   |   |   |   |1  |   |9  |1  |   |   |   |
12 |   |   |   |   |   |   |5  |   |   |2  |2  |1  |
13 |   |   |   |   |   |2  |1  |4  |3  |1  |1  |   |
14 |   |   |   |   |   |2  |   |   |   |1  |1  |1  |
15 |1  |   |   |1  |   |1  |   |   |   |   |   |   |
16 |1  |   |   |   |   |   |   |1  |1  |2  |   |2  |
17 |   |3  |   |   |   |2  |   |2  |   |   |   |   |
18 |   |   |   |   |   |   |1  |2  |2  |   |   |1  |
19 |   |   |   |   |   |   |2  |   |2  |   |   |   |
20 |   |   |   |3  |2  |   |   |2  |3  |4  |   |2  |
21 |   |   |   |1  |   |2  |2  |1  |3  |1  |2  |3  |
22 |   |1  |1  |3  |   |   |1  |3  |4  |2  |   |   |
23 |   |   |   |   |   |   |9  |2  |   |   |   |   |
24 |1  |   |2  |   |   |   |1  |3  |4  |1  |3  |   |
25 |1  |   |   |   |   |1  |   |   |1  |   |2  |   |
26 |   |   |   |   |   |3  |1  |2  |5  |1  |   |   |
27 |   |   |   |1  |11  |   |2  |3  |6  |4  |8  |1  |
28 |   |   |   |   |6  |5  |8  |1  |   |   |   |   |
29 |   |   |1  |   |   |   |6  |   |2  |1  |   |   |
30 |   |   |   |   |   |   |1  |4  |   |2  |   |   |
31 |   |   |   |   |   |   |   |   |   |   |   |   |
spillman_waycare I15S predictions:
Hr>| 6   | 8   |10   |12   |14   |16   |18   |20   |
Day|
0  |     |     |     |     |     |     |     |     |
1  |     |     |     |     |     |     |     |     |
2  |     |     |     |     |     |     |     |     |
3  |     |     |     |     |     |     |     |     |
4  |     |     |     |     |     |     |     |     |
5  |     |     |     |     |     |     |     |     |
6  |     |     |     |     |     |     |     |     |
7  |     |     |     |     |     |     |     |     |
8  |     |     |     |     |     |     |     |     |
9  |2.0  |2.0  |2.0  |2.0  |0.0  |0.0  |0.0  |0.0  |
10 |0.0  |0.0  |2.0  |2.0  |0.0  |2.0  |0.0  |0.0  |
11 |0.0  |0.0  |2.0  |2.0  |0.0  |0.0  |0.0  |0.0  |
12 |0.0  |0.0  |0.0  |0.0  |0.0  |2.0  |2.0  |0.0  |
13 |0.0  |0.0  |2.0  |2.0  |0.0  |2.0  |2.0  |0.0  |
14 |0.0  |0.0  |2.0  |2.0  |2.0  |2.0  |0.0  |0.0  |
15 |0.0  |0.0  |0.0  |2.0  |2.0  |2.0  |2.0  |0.0  |
16 |2.0  |2.0  |2.0  |2.0  |0.0  |0.0  |0.0  |0.0  |
17 |0.0  |0.0  |2.0  |2.0  |0.0  |2.0  |0.0  |0.0  |
18 |0.0  |0.0  |2.0  |2.0  |0.0  |2.0  |0.0  |0.0  |
19 |0.0  |0.0  |0.0  |0.0  |0.0  |2.0  |2.0  |0.0  |
20 |0.0  |0.0  |2.0  |2.0  |0.0  |2.0  |2.0  |0.0  |
21 |0.0  |0.0  |2.0  |2.0  |2.0  |2.0  |0.0  |0.0  |
22 |0.0  |0.0  |0.0  |2.0  |2.0  |2.0  |2.0  |0.0  |
23 |2.0  |2.0  |2.0  |2.0  |0.0  |0.0  |0.0  |0.0  |
24 |0.0  |0.0  |2.0  |2.0  |0.0  |2.0  |0.0  |0.0  |
25 |0.0  |0.0  |2.0  |2.0  |0.0  |0.0  |0.0  |0.0  |
26 |0.0  |0.0  |0.0  |0.0  |0.0  |2.0  |2.0  |0.0  |
27 |0.0  |0.0  |2.0  |2.0  |0.0  |2.0  |2.0  |0.0  |
28 |0.0  |0.0  |2.0  |2.0  |2.0  |2.0  |0.0  |0.0  |
29 |0.0  |0.0  |0.0  |2.0  |2.0  |2.0  |2.0  |0.0  |
30 |2.0  |2.0  |2.0  |2.0  |0.0  |0.0  |0.0  |0.0  |
31 |0.0  |0.0  |2.0  |2.0  |0.0  |2.0  |0.0  |0.0  |
spillman_waycare I15S crashes:
Hr>|0  |2  |4  |6  |8  |10 |12 |14 |16 |18 |20 |22 |
Day|
0  |   |   |   |   |   |   |   |   |   |   |   |   |
1  |   |   |   |   |   |   |   |   |   |   |   |   |
2  |   |   |   |   |   |   |   |   |   |   |   |   |
3  |   |   |   |   |   |   |   |   |   |   |   |   |
4  |   |   |   |   |   |   |   |   |   |   |   |   |
5  |   |   |   |   |   |   |   |   |   |   |   |   |
6  |   |   |   |   |   |   |   |   |   |   |   |   |
7  |   |   |   |   |   |   |   |   |   |   |   |   |
8  |   |   |   |   |   |   |   |   |   |   |   |   |
9  |   |   |   |   |   |   |2  |3  |   |   |   |   |
10 |   |   |   |   |   |   |   |1  |   |   |1  |   |
11 |   |   |   |   |1  |   |   |   |   |   |   |   |
12 |   |   |   |3  |   |   |   |   |2  |1  |   |   |
13 |   |   |   |   |   |   |   |   |   |3  |   |   |
14 |   |   |1  |1  |   |   |   |1  |   |   |   |   |
15 |   |   |   |   |   |2  |1  |   |1  |   |   |   |
16 |   |   |   |   |   |   |1  |   |   |   |   |   |
17 |   |   |   |1  |   |   |   |   |1  |1  |   |1  |
18 |   |   |   |   |   |   |1  |   |   |   |1  |   |
19 |   |   |1  |   |1  |   |   |   |   |   |1  |   |
20 |   |   |   |   |   |   |   |   |   |1  |   |   |
21 |   |   |   |   |   |   |1  |   |   |   |   |   |
22 |   |1  |1  |   |   |   |   |   |1  |   |   |   |
23 |1  |   |   |   |   |   |2  |1  |1  |   |   |   |
24 |   |   |   |1  |   |   |   |   |   |   |   |   |
25 |   |   |   |   |   |   |3  |1  |1  |   |   |   |
26 |   |   |   |   |   |   |   |2  |2  |   |   |   |
27 |   |   |   |1  |   |1  |1  |1  |1  |   |   |   |
28 |   |   |   |   |1  |   |   |1  |3  |   |   |1  |
29 |   |   |   |   |   |1  |   |   |   |   |2  |   |
30 |   |   |1  |   |1  |   |   |1  |   |   |   |   |
31 |   |   |   |   |   |   |1  |   |   |   |   |   |
