I15N:
total_number_of_accidents_predicted_correctly_I15N: 74
total_accidents_slots_predicted_I15N: 101
total_crashes_in_slots_I15N: 84
accident hit rate I15N (accidents predicted correctly/total accidents)(%): 88.09523809523809
accident slot hit rate I15N (accident slots predicted correctly/total accident slots)(%): 84.0
Total accident slots predicted correctly I15N: 42
Total accident slots I15N: 50
Total accidents I15N: 93
Total slots I15N: 439
Non-Accident hit-rate (predicted correct noncrash slots/total noncrash slots) I15N: 90.2439024390244
Average slots hit rate I15N: 87.1219512195122
accident miss rate I15N (accidents predicted correctly/total accidents)(%): 11.904761904761907
accident slot miss rate I15N (accident slots predicted correctly/total accident slots)(%): 16.000000000000004




I15S:
total_number_of_accidents_predicted_correctly_I15S: 11
total_accidents_slots_predicted_I15S: 77
total_crashes_in_slots_I15S: 23
accident hit rate I15S (accidents predicted correctly/total accidents)(%): 47.82608695652174
accident slot hit rate I15S (accident slots predicted correctly/total accident slots)(%): 47.368421052631575
Total accident slots predicted correctly I15S: 9
Total accident slots I15S: 19
Total accidents I15S: 23
Total slots I15S: 439
Non-Accident hit-rate (predicted correct noncrash slots/total noncrash slots) I15S: 90.56603773584906
Average slots hit rate I15S: 68.96722939424032
accident miss rate I15S (1-accidents predicted correctly/total accidents)(%): 52.17391304347826
accident slot miss rate I15S (1-accident slots predicted correctly/total accident slots)(%): 52.63157894736843




US95N:
total_number_of_accidents_predicted_correctly_US95N: 2
total_accidents_slots_predicted_US95N: 42
total_crashes_in_slots_US95N: 5
accident hit rate US95N (accidents predicted correctly/total accidents)(%): 40.0
accident slot hit rate US95N (accident slots predicted correctly/total accident slots)(%): 40.0
Total accident slots predicted correctly US95N: 2
Total accident slots US95N: 5
Total slots US95N: 9
Total accidents US95N: 9
Total slots US95N: 439
Non-Accident hit-rate (predicted correct noncrash slots/total noncrash slots) US95N: 97.87234042553192
Average slots hit rate US95N: 68.93617021276596
accident miss rate US95N (1-accidents predicted correctly/total accidents)(%): 60.0
accident slot miss rate US95N (1-accident slots predicted correctly/total accident slots)(%): 60.0




US95S:
total_number_of_accidents_predicted_correctly_US95S: 2
total_accidents_slots_predicted_US95S: 51
total_crashes_in_slots_US95S: 15
accident hit rate US95S (accidents predicted correctly/total accidents)(%): 13.333333333333334
accident slot hit rate US95S (accident slots predicted correctly/total accident slots)(%): 15.384615384615385
Total accident slots predicted correctly US95S: 2
Total accident slots US95S: 13
Total accidents US95S: 20
Total slots US95S: 439
Non-Accident hit-rate (predicted correct noncrash slots/total noncrash slots) US95S: 91.66666666666666
Average slots hit rate US95S: 53.52564102564102
accident miss rate US95S (1-accidents predicted correctly/total accidents)(%): 86.66666666666667
accident slot miss rate US95S (1-accident slots predicted correctly/total accident slots)(%): 84.61538461538461
waycare US95N predictions:
Hr>| 6   | 8   |10   |12   |14   |16   |18   |20   |
Day|
0  |     |     |     |     |     |     |     |     |
1  |     |     |     |     |     |     |     |     |
2  |     |     |     |     |     |     |     |     |
3  |     |     |     |     |     |     |     |     |
4  |     |     |     |     |     |     |     |     |
5  |     |     |     |     |     |     |     |     |
6  |     |     |     |     |     |     |     |     |
7  |     |     |     |     |     |     |     |     |
8  |     |     |     |     |     |     |     |     |
9  |     |0.0  |0.0  |0.0  |0.0  |2.0  |2.0  |0.0  |
10 |0.0  |2.0  |0.0  |0.0  |0.0  |2.0  |0.0  |0.0  |
11 |0.0  |2.0  |0.0  |0.0  |0.0  |2.0  |2.0  |0.0  |
12 |0.0  |2.0  |0.0  |2.0  |0.0  |2.0  |0.0  |0.0  |
13 |2.0  |0.0  |0.0  |0.0  |0.0  |0.0  |0.0  |0.0  |
14 |0.0  |2.0  |2.0  |0.0  |0.0  |0.0  |0.0  |0.0  |
15 |0.0  |0.0  |0.0  |0.0  |0.0  |0.0  |0.0  |0.0  |
16 |0.0  |0.0  |0.0  |0.0  |0.0  |2.0  |2.0  |0.0  |
17 |0.0  |2.0  |0.0  |0.0  |0.0  |2.0  |0.0  |0.0  |
18 |0.0  |2.0  |0.0  |0.0  |0.0  |2.0  |0.0  |0.0  |
19 |0.0  |2.0  |0.0  |2.0  |0.0  |2.0  |0.0  |0.0  |
20 |2.0  |0.0  |0.0  |0.0  |0.0  |0.0  |0.0  |0.0  |
21 |0.0  |2.0  |2.0  |0.0  |0.0  |0.0  |0.0  |0.0  |
22 |0.0  |0.0  |0.0  |0.0  |0.0  |0.0  |0.0  |0.0  |
23 |0.0  |0.0  |0.0  |0.0  |0.0  |2.0  |2.0  |0.0  |
24 |0.0  |2.0  |0.0  |0.0  |0.0  |2.0  |0.0  |0.0  |
25 |0.0  |2.0  |0.0  |0.0  |0.0  |2.0  |2.0  |0.0  |
26 |0.0  |2.0  |0.0  |2.0  |0.0  |2.0  |0.0  |0.0  |
27 |2.0  |0.0  |0.0  |0.0  |0.0  |0.0  |0.0  |0.0  |
28 |0.0  |2.0  |2.0  |0.0  |0.0  |0.0  |0.0  |0.0  |
29 |0.0  |0.0  |0.0  |0.0  |0.0  |0.0  |0.0  |0.0  |
30 |0.0  |0.0  |0.0  |0.0  |0.0  |2.0  |2.0  |0.0  |
31 |0.0  |2.0  |0.0  |0.0  |0.0  |2.0  |0.0  |0.0  |
waycare US95N crashes:
Hr>|0  |2  |4  |6  |8  |10 |12 |14 |16 |18 |20 |22 |
Day|
0  |   |   |   |   |   |   |   |   |   |   |   |   |
1  |   |   |   |   |   |   |   |   |   |   |   |   |
2  |   |   |   |   |   |   |   |   |   |   |   |   |
3  |   |   |   |   |   |   |   |   |   |   |   |   |
4  |   |   |   |   |   |   |   |   |   |   |   |   |
5  |   |   |   |   |   |   |   |   |   |   |   |   |
6  |   |   |   |   |   |   |   |   |   |   |   |   |
7  |   |   |   |   |   |   |   |   |   |   |   |   |
8  |   |   |   |   |   |   |   |   |   |   |   |   |
9  |   |   |   |   |   |   |   |   |   |   |   |   |
10 |   |   |   |   |   |   |   |   |1  |1  |   |   |
11 |   |   |   |   |   |   |   |   |1  |   |   |   |
12 |   |   |   |   |   |   |   |   |   |   |   |   |
13 |   |   |   |   |   |   |   |   |   |   |   |   |
14 |   |   |   |   |   |   |   |   |   |   |   |   |
15 |4  |   |   |   |   |   |   |   |   |   |   |   |
16 |   |   |   |   |   |   |   |   |   |   |   |   |
17 |   |   |   |   |   |   |   |1  |   |   |   |   |
18 |   |   |   |   |   |   |   |   |   |   |   |   |
19 |   |   |   |   |   |   |   |   |   |   |   |   |
20 |   |   |   |   |   |   |   |   |   |   |   |   |
21 |   |   |   |   |   |   |   |1  |   |   |   |   |
22 |   |   |   |   |   |   |   |   |   |   |   |   |
23 |   |   |   |   |   |   |   |   |   |   |   |   |
24 |   |   |   |   |   |   |   |   |   |   |   |   |
25 |   |   |   |   |   |   |   |   |   |   |   |   |
26 |   |   |   |   |   |   |   |   |   |   |   |   |
27 |   |   |   |   |   |   |   |   |   |   |   |   |
28 |   |   |   |   |   |   |   |   |   |   |   |   |
29 |   |   |   |   |   |   |   |   |   |   |   |   |
30 |   |   |   |   |   |   |   |   |   |   |   |   |
31 |   |   |   |   |   |   |   |   |   |   |   |   |
waycare US95S predictions:
Hr>| 6   | 8   |10   |12   |14   |16   |18   |20   |
Day|
0  |     |     |     |     |     |     |     |     |
1  |     |     |     |     |     |     |     |     |
2  |     |     |     |     |     |     |     |     |
3  |     |     |     |     |     |     |     |     |
4  |     |     |     |     |     |     |     |     |
5  |     |     |     |     |     |     |     |     |
6  |     |     |     |     |     |     |     |     |
7  |     |     |     |     |     |     |     |     |
8  |     |     |     |     |     |     |     |     |
9  |     |2.0  |0.0  |0.0  |0.0  |0.0  |0.0  |0.0  |
10 |2.0  |2.0  |0.0  |0.0  |0.0  |0.0  |0.0  |0.0  |
11 |2.0  |2.0  |0.0  |0.0  |0.0  |0.0  |0.0  |0.0  |
12 |2.0  |2.0  |2.0  |0.0  |2.0  |0.0  |0.0  |0.0  |
13 |2.0  |2.0  |2.0  |0.0  |0.0  |2.0  |0.0  |0.0  |
14 |0.0  |0.0  |2.0  |0.0  |0.0  |0.0  |0.0  |0.0  |
15 |0.0  |0.0  |2.0  |0.0  |0.0  |0.0  |0.0  |0.0  |
16 |2.0  |2.0  |0.0  |0.0  |0.0  |0.0  |0.0  |0.0  |
17 |2.0  |2.0  |0.0  |0.0  |0.0  |0.0  |0.0  |0.0  |
18 |2.0  |2.0  |0.0  |0.0  |0.0  |0.0  |0.0  |0.0  |
19 |2.0  |2.0  |2.0  |0.0  |2.0  |0.0  |0.0  |0.0  |
20 |2.0  |2.0  |2.0  |0.0  |0.0  |2.0  |0.0  |0.0  |
21 |0.0  |0.0  |2.0  |0.0  |0.0  |0.0  |0.0  |0.0  |
22 |0.0  |0.0  |2.0  |0.0  |0.0  |0.0  |0.0  |0.0  |
23 |2.0  |2.0  |0.0  |0.0  |0.0  |0.0  |0.0  |0.0  |
24 |2.0  |2.0  |0.0  |0.0  |0.0  |0.0  |0.0  |0.0  |
25 |2.0  |2.0  |0.0  |0.0  |0.0  |0.0  |0.0  |0.0  |
26 |2.0  |2.0  |2.0  |0.0  |2.0  |0.0  |0.0  |0.0  |
27 |2.0  |2.0  |2.0  |0.0  |0.0  |2.0  |0.0  |0.0  |
28 |0.0  |0.0  |2.0  |0.0  |0.0  |0.0  |0.0  |0.0  |
29 |0.0  |0.0  |2.0  |0.0  |0.0  |0.0  |0.0  |0.0  |
30 |2.0  |2.0  |0.0  |0.0  |0.0  |0.0  |0.0  |0.0  |
31 |2.0  |2.0  |0.0  |0.0  |0.0  |0.0  |0.0  |0.0  |
waycare US95S crashes:
Hr>|0  |2  |4  |6  |8  |10 |12 |14 |16 |18 |20 |22 |
Day|
0  |   |   |   |   |   |   |   |   |   |   |   |   |
1  |   |   |   |   |   |   |   |   |   |   |   |   |
2  |   |   |   |   |   |   |   |   |   |   |   |   |
3  |   |   |   |   |   |   |   |   |   |   |   |   |
4  |   |   |   |   |   |   |   |   |   |   |   |   |
5  |   |   |   |   |   |   |   |   |   |   |   |   |
6  |   |   |   |   |   |   |   |   |   |   |   |   |
7  |   |   |   |   |   |   |   |   |   |   |   |   |
8  |   |   |   |   |   |   |   |   |   |   |   |   |
9  |   |   |   |   |   |2  |   |   |   |   |   |   |
10 |   |   |   |   |   |   |   |   |1  |   |   |   |
11 |   |   |   |   |   |   |   |   |   |   |1  |1  |
12 |   |   |   |   |   |   |   |   |   |   |1  |2  |
13 |   |   |   |   |   |   |   |   |   |   |   |   |
14 |   |   |   |   |   |   |   |   |   |   |   |   |
15 |1  |   |   |   |   |   |   |   |   |   |   |   |
16 |   |   |   |   |   |   |1  |   |   |   |   |   |
17 |   |   |   |   |   |   |   |   |   |   |   |   |
18 |   |   |   |   |   |   |   |   |   |1  |   |   |
19 |   |   |   |   |   |   |   |   |   |   |   |   |
20 |   |   |   |   |   |   |   |   |   |   |1  |   |
21 |   |   |   |   |   |   |   |2  |   |   |   |   |
22 |   |   |   |   |   |   |   |   |   |   |   |   |
23 |   |   |   |   |   |   |   |   |   |   |   |   |
24 |   |   |   |   |   |   |   |   |   |   |   |   |
25 |   |   |   |   |   |   |   |1  |   |   |   |   |
26 |   |   |   |   |   |   |   |   |   |   |   |   |
27 |   |   |   |   |   |   |   |   |   |   |   |   |
28 |   |   |   |   |   |1  |   |   |   |   |   |   |
29 |1  |   |   |   |   |   |   |   |   |1  |   |   |
30 |   |   |   |   |1  |1  |   |   |   |   |   |   |
31 |   |   |   |   |   |   |   |   |   |   |   |   |
waycare I15N predictions:
Hr>| 6   | 8   |10   |12   |14   |16   |18   |20   |
Day|
0  |     |     |     |     |     |     |     |     |
1  |     |     |     |     |     |     |     |     |
2  |     |     |     |     |     |     |     |     |
3  |     |     |     |     |     |     |     |     |
4  |     |     |     |     |     |     |     |     |
5  |     |     |     |     |     |     |     |     |
6  |     |     |     |     |     |     |     |     |
7  |     |     |     |     |     |     |     |     |
8  |     |     |     |     |     |     |     |     |
9  |     |0.0  |0.0  |2.0  |2.0  |2.0  |2.0  |0.0  |
10 |0.0  |0.0  |0.0  |2.0  |2.0  |2.0  |2.0  |0.0  |
11 |0.0  |0.0  |0.0  |2.0  |2.0  |2.0  |2.0  |0.0  |
12 |0.0  |0.0  |0.0  |2.0  |2.0  |2.0  |2.0  |2.0  |
13 |0.0  |0.0  |2.0  |2.0  |2.0  |2.0  |2.0  |2.0  |
14 |0.0  |0.0  |0.0  |2.0  |2.0  |2.0  |2.0  |2.0  |
15 |0.0  |0.0  |0.0  |0.0  |2.0  |2.0  |2.0  |0.0  |
16 |0.0  |0.0  |0.0  |2.0  |2.0  |2.0  |2.0  |0.0  |
17 |0.0  |0.0  |0.0  |2.0  |2.0  |2.0  |2.0  |0.0  |
18 |0.0  |0.0  |0.0  |2.0  |2.0  |2.0  |2.0  |0.0  |
19 |0.0  |0.0  |0.0  |2.0  |2.0  |2.0  |2.0  |2.0  |
20 |0.0  |0.0  |2.0  |2.0  |2.0  |2.0  |2.0  |2.0  |
21 |0.0  |0.0  |0.0  |2.0  |2.0  |2.0  |2.0  |2.0  |
22 |0.0  |0.0  |0.0  |0.0  |2.0  |2.0  |2.0  |0.0  |
23 |0.0  |0.0  |0.0  |2.0  |2.0  |2.0  |2.0  |0.0  |
24 |0.0  |0.0  |0.0  |2.0  |2.0  |2.0  |2.0  |0.0  |
25 |0.0  |0.0  |0.0  |2.0  |2.0  |2.0  |2.0  |0.0  |
26 |0.0  |0.0  |0.0  |2.0  |2.0  |2.0  |2.0  |2.0  |
27 |0.0  |0.0  |2.0  |2.0  |2.0  |2.0  |2.0  |2.0  |
28 |0.0  |0.0  |0.0  |2.0  |2.0  |2.0  |2.0  |2.0  |
29 |0.0  |0.0  |0.0  |0.0  |2.0  |2.0  |2.0  |0.0  |
30 |0.0  |0.0  |0.0  |2.0  |2.0  |2.0  |2.0  |0.0  |
31 |0.0  |0.0  |0.0  |2.0  |2.0  |2.0  |2.0  |0.0  |
waycare I15N crashes:
Hr>|0  |2  |4  |6  |8  |10 |12 |14 |16 |18 |20 |22 |
Day|
0  |   |   |   |   |   |   |   |   |   |   |   |   |
1  |   |   |   |   |   |   |   |   |   |   |   |   |
2  |   |   |   |   |   |   |   |   |   |   |   |   |
3  |   |   |   |   |   |   |   |   |   |   |   |   |
4  |   |   |   |   |   |   |   |   |   |   |   |   |
5  |   |   |   |   |   |   |   |   |   |   |   |   |
6  |   |   |   |   |   |   |   |   |   |   |   |   |
7  |   |   |   |   |   |   |   |   |   |   |   |   |
8  |   |   |   |   |   |   |   |   |   |   |   |   |
9  |   |   |   |   |   |   |   |   |2  |   |   |   |
10 |   |   |   |   |   |   |   |   |1  |   |   |   |
11 |   |   |   |   |   |   |   |4  |1  |   |   |   |
12 |   |   |   |   |   |   |2  |   |   |   |3  |   |
13 |   |   |   |   |   |1  |   |2  |2  |   |   |   |
14 |   |   |   |   |   |   |1  |   |   |   |1  |   |
15 |   |   |   |   |   |   |1  |   |   |   |   |   |
16 |   |   |   |   |   |   |   |   |   |1  |   |   |
17 |1  |   |1  |   |   |   |1  |   |   |   |   |   |
18 |   |   |   |   |   |   |   |1  |1  |   |   |   |
19 |   |   |   |   |   |   |   |   |   |1  |   |   |
20 |   |   |   |   |1  |   |   |2  |   |2  |   |   |
21 |   |   |   |   |   |   |2  |   |1  |2  |   |1  |
22 |   |   |   |   |   |   |   |   |1  |3  |   |   |
23 |   |   |   |   |   |   |2  |2  |   |   |   |   |
24 |   |   |   |1  |   |   |   |   |1  |2  |   |1  |
25 |   |   |   |   |   |   |1  |   |   |   |   |   |
26 |   |   |   |   |   |1  |   |1  |3  |1  |   |   |
27 |   |   |   |   |1  |3  |   |   |5  |1  |1  |5  |
28 |   |   |   |   |1  |3  |2  |4  |1  |   |   |   |
29 |   |   |   |   |   |   |1  |2  |   |2  |   |   |
30 |   |   |   |   |   |   |   |1  |1  |   |   |   |
31 |   |   |   |   |   |   |   |   |   |   |   |   |
waycare I15S predictions:
Hr>| 6   | 8   |10   |12   |14   |16   |18   |20   |
Day|
0  |     |     |     |     |     |     |     |     |
1  |     |     |     |     |     |     |     |     |
2  |     |     |     |     |     |     |     |     |
3  |     |     |     |     |     |     |     |     |
4  |     |     |     |     |     |     |     |     |
5  |     |     |     |     |     |     |     |     |
6  |     |     |     |     |     |     |     |     |
7  |     |     |     |     |     |     |     |     |
8  |     |     |     |     |     |     |     |     |
9  |     |2.0  |2.0  |2.0  |2.0  |0.0  |0.0  |0.0  |
10 |0.0  |0.0  |0.0  |2.0  |2.0  |0.0  |2.0  |0.0  |
11 |0.0  |0.0  |0.0  |2.0  |2.0  |0.0  |0.0  |0.0  |
12 |0.0  |0.0  |0.0  |0.0  |0.0  |0.0  |2.0  |2.0  |
13 |0.0  |0.0  |0.0  |2.0  |2.0  |0.0  |2.0  |2.0  |
14 |0.0  |0.0  |0.0  |2.0  |2.0  |2.0  |2.0  |0.0  |
15 |0.0  |0.0  |0.0  |0.0  |2.0  |2.0  |2.0  |2.0  |
16 |0.0  |2.0  |2.0  |2.0  |2.0  |0.0  |0.0  |0.0  |
17 |0.0  |0.0  |0.0  |2.0  |2.0  |0.0  |2.0  |0.0  |
18 |0.0  |0.0  |0.0  |2.0  |2.0  |0.0  |2.0  |0.0  |
19 |0.0  |0.0  |0.0  |0.0  |0.0  |0.0  |2.0  |2.0  |
20 |0.0  |0.0  |0.0  |2.0  |2.0  |0.0  |2.0  |2.0  |
21 |0.0  |0.0  |0.0  |2.0  |2.0  |2.0  |2.0  |0.0  |
22 |0.0  |0.0  |0.0  |0.0  |2.0  |2.0  |2.0  |2.0  |
23 |0.0  |2.0  |2.0  |2.0  |2.0  |0.0  |0.0  |0.0  |
24 |0.0  |0.0  |0.0  |2.0  |2.0  |0.0  |2.0  |0.0  |
25 |0.0  |0.0  |0.0  |2.0  |2.0  |0.0  |0.0  |0.0  |
26 |0.0  |0.0  |0.0  |0.0  |0.0  |0.0  |2.0  |2.0  |
27 |0.0  |0.0  |0.0  |2.0  |2.0  |0.0  |2.0  |2.0  |
28 |0.0  |0.0  |0.0  |2.0  |2.0  |2.0  |2.0  |0.0  |
29 |0.0  |0.0  |0.0  |0.0  |2.0  |2.0  |2.0  |2.0  |
30 |0.0  |2.0  |2.0  |2.0  |2.0  |0.0  |0.0  |0.0  |
31 |0.0  |0.0  |0.0  |2.0  |2.0  |0.0  |2.0  |0.0  |
waycare I15S crashes:
Hr>|0  |2  |4  |6  |8  |10 |12 |14 |16 |18 |20 |22 |
Day|
0  |   |   |   |   |   |   |   |   |   |   |   |   |
1  |   |   |   |   |   |   |   |   |   |   |   |   |
2  |   |   |   |   |   |   |   |   |   |   |   |   |
3  |   |   |   |   |   |   |   |   |   |   |   |   |
4  |   |   |   |   |   |   |   |   |   |   |   |   |
5  |   |   |   |   |   |   |   |   |   |   |   |   |
6  |   |   |   |   |   |   |   |   |   |   |   |   |
7  |   |   |   |   |   |   |   |   |   |   |   |   |
8  |   |   |   |   |   |   |   |   |   |   |   |   |
9  |   |   |   |   |   |   |   |1  |1  |   |   |   |
10 |   |   |   |   |   |   |   |   |   |   |1  |   |
11 |   |   |   |   |   |   |   |   |   |   |   |   |
12 |   |   |   |1  |1  |   |   |   |   |2  |   |   |
13 |   |   |   |   |   |   |   |   |   |   |1  |   |
14 |   |   |   |1  |1  |   |   |1  |   |   |   |   |
15 |   |   |   |   |   |   |2  |   |   |   |   |   |
16 |   |   |   |   |   |   |   |   |   |   |   |   |
17 |   |   |   |   |   |   |   |   |   |1  |   |   |
18 |   |   |   |   |   |   |   |   |   |   |   |   |
19 |   |   |   |   |   |   |   |   |   |   |   |   |
20 |   |   |   |   |   |   |   |   |   |   |   |   |
21 |   |   |   |   |   |   |   |   |   |   |   |   |
22 |   |   |   |   |   |   |   |   |   |   |   |   |
23 |   |   |   |   |   |   |   |   |   |   |   |   |
24 |   |   |   |   |   |   |   |   |   |   |   |   |
25 |   |   |   |   |   |   |2  |   |1  |   |   |   |
26 |   |   |   |   |   |   |   |   |2  |   |   |   |
27 |   |   |   |   |   |   |   |   |1  |   |   |   |
28 |   |   |   |   |   |   |   |1  |1  |   |   |   |
29 |   |   |   |   |   |   |   |   |   |   |   |   |
30 |   |   |   |   |   |   |   |   |   |   |   |   |
31 |   |   |   |   |   |   |1  |   |   |   |   |   |
